bestMoveCombos,greatRank,id,lastUpdated,masterRank,name,type1,type2,typeAdvantages,typeDisadvantages,ultraRank,url
Snarl OR Fire Fang+Flamethrower and Wild Charge&Fire Fang+Crunch and Wild Charge,1.5,59,2020-06-05,1,Arcanine,fire,,bug&fairy&fire&grass&ice&steel,ground&rock&water,1.5,https://gamepress.gg/pokemongo/pokemon/59
Psycho Cut + Shadow Ball* and Focus Blast or Ice Beam&Psycho Cut + Psystrike* and Focus Blast or Ice Beam,N,150,2020-04-29,4,Mewtwo,psychic,,fighting&psychic,bug&dark&ghost,2,https://gamepress.gg/pokemongo/pokemon/150
Fury Cutter + Rock Blast and Cross Poison or Water Pulse,1,348,2019-07-01,0,Armaldo,bug,rock,normal&poison,rock&steel&water,1.5,https://gamepress.gg/pokemongo/pokemon/348
,-1,181,2020-05-01,-1,Ampharos,electric,,electric&flying&steel,ground,-1,https://gamepress.gg/pokemongo/pokemon/181
Razor Leaf + Outrage,2,460,2020-05-25,0,Abomasnow,grass,ice,electric&grass&ground&water,bug&fighting&fire&flying&poison&rock&steel,1,https://gamepress.gg/pokemongo/pokemon/460
,-1,493,2020-01-13,-1,Arceus,normal,,ghost,fighting,-1,https://gamepress.gg/pokemongo/pokemon/493
,-1,168,2020-01-13,-1,Ariados,bug,poison,bug&fairy&fighting&grass&poison,fire&flying&psychic&rock,-1,https://gamepress.gg/pokemongo/pokemon/168
,-1,566,2019-09-15,-1,Archen,flying,rock,bug&fire&flying&ground&normal&poison,electric&ice&rock&steel&water,-1,https://gamepress.gg/pokemongo/pokemon/566
Wing Attack + Dragon Claw and Crunch,1,567,2020-04-02,0,Archeops,flying,rock,bug&fire&flying&ground&normal&poison,electric&ice&rock&steel&water,1,https://gamepress.gg/pokemongo/pokemon/567
Dragon Breath + Sky Attack and Dragon Pulse,5,334,2020-02-06,0,Altaria,dragon,flying,bug&fighting&fire&grass&ground&water,dragon&fairy&ice&rock,1,https://gamepress.gg/pokemongo/pokemon/334
,-1,347,2019-05-07,-1,Anorith,bug,rock,normal&poison,rock&steel&water,-1,https://gamepress.gg/pokemongo/pokemon/347
,-1,24,2019-07-22,-1,Arbok,poison,,bug&fairy&fighting&grass&poison,ground&psychic,-1,https://gamepress.gg/pokemongo/pokemon/24
Feint Attack+Grass Knot and Foul Play OR Sludge Bomb,2.5,591,2019-10-05,1,Amoonguss,grass,poison,electric&fairy&fighting&grass&water,fire&flying&ice&psychic,1.5,https://gamepress.gg/pokemongo/pokemon/591
,-1,644,2020-05-31,-1,Zekrom,dragon,electric,electric&fire&flying&grass&steel&water,dragon&fairy&ground&ice,-1,https://gamepress.gg/pokemongo/pokemon/644
,-1,424,2019-05-07,-1,Ambipom,normal,,ghost,fighting,-1,https://gamepress.gg/pokemongo/pokemon/424
Waterfall or Hidden Power + Psychic and Hydro Pump or Blizzard,3,594,2020-02-13,0,Alomomola,water,,fire&ice&steel&water,electric&grass,1,https://gamepress.gg/pokemongo/pokemon/594
Shadow Claw+Night Slash and Close Combat,1.5,335,2019-12-16,0,Zangoose,normal,,ghost,fighting,4,https://gamepress.gg/pokemongo/pokemon/335
Dragon Breath + Body Slam and Dark Pulse,4,634,2019-09-16,0,Zweilous,dark,dragon,dark&electric&fire&ghost&grass&psychic&water,bug&dragon&fairy&fighting&ice,1,https://gamepress.gg/pokemongo/pokemon/634
,-1,37,2019-07-22,-1,Vulpix,fire,,bug&fairy&fire&grass&ice&steel,ground&rock&water,-1,https://gamepress.gg/pokemongo/pokemon/37
Bug Bite or Wing Attack + Aerial Ace and Bug Buzz,0,469,2020-04-02,0,Yanmega,bug,flying,bug&fighting&grass&ground,electric&fire&flying&ice&rock,0,https://gamepress.gg/pokemongo/pokemon/469
,-1,571,2019-09-15,-1,Zoroark,dark,,dark&ghost&psychic,bug&fairy&fighting,-1,https://gamepress.gg/pokemongo/pokemon/571
,-1,570,2019-09-15,-1,Zorua,dark,,dark&ghost&psychic,bug&fairy&fighting,-1,https://gamepress.gg/pokemongo/pokemon/570
,-1,41,2020-04-28,-1,Zubat,flying,poison,bug&fairy&fighting&grass&ground&poison,electric&ice&psychic&rock,-1,https://gamepress.gg/pokemongo/pokemon/41
Spark + Discharge and Wild Charge or Flame Charge,2,523,2019-10-10,0,Zebstrika,electric,,electric&flying&steel,ground,1,https://gamepress.gg/pokemongo/pokemon/523
Wing Attack + Aerial Ace and Ancient Power or Silver Wind,0,193,2020-04-02,0,Yanma,bug,flying,bug&fighting&grass&ground,electric&fire&flying&ice&rock,0,https://gamepress.gg/pokemongo/pokemon/193
Thunder Shock* + Drill Peck and Thunderbolt,1.5,145,2020-04-29,3.5,Zapdos,electric,flying,bug&fighting&flying&grass&ground&steel,ice&rock,2.5,https://gamepress.gg/pokemongo/pokemon/145
,-1,562,2019-10-17,-1,Yamask,ghost,,bug&fighting&normal&poison,dark&ghost,-1,https://gamepress.gg/pokemongo/pokemon/562
Counter + Mirror Coat,1,202,2020-05-01,0,Wobbuffet,psychic,,fighting&psychic,bug&dark&ghost,0,https://gamepress.gg/pokemongo/pokemon/202
,-1,360,2020-01-13,-1,Wynaut,psychic,,fighting&psychic,bug&dark&ghost,-1,https://gamepress.gg/pokemongo/pokemon/360
,-1,265,2020-03-19,-1,Wurmple,bug,,fighting&grass&ground,fire&flying&rock,-1,https://gamepress.gg/pokemongo/pokemon/265
Air Slash or Feint Attack + Aerial Ace and Ominous Wind or Futuresight,1,178,2020-04-02,0,Xatu,flying,psychic,fighting&grass&ground&psychic,dark&electric&ghost&ice&rock,0,https://gamepress.gg/pokemongo/pokemon/178
,-1,544,2019-09-17,-1,Whirlipede,bug,poison,bug&fairy&fighting&grass&poison,fire&flying&psychic&rock,-1,https://gamepress.gg/pokemongo/pokemon/544
,-1,194,2019-05-07,-1,Wooper,ground,water,electric&fire&poison&rock&steel,grass,-1,https://gamepress.gg/pokemongo/pokemon/194
,-1,278,2020-01-13,-1,Wingull,flying,water,bug&fighting&fire&ground&steel&water,electric&rock,-1,https://gamepress.gg/pokemongo/pokemon/278
Charm + Play Rough and Ice Beam,3.5,40,2020-01-02,0,Wigglytuff,fairy,normal,bug&dark&dragon&ghost,poison&steel,3.5,https://gamepress.gg/pokemongo/pokemon/40
,-1,293,2019-05-07,-1,Whismur,normal,,ghost,fighting,-1,https://gamepress.gg/pokemongo/pokemon/293
,-1,527,2019-09-17,-1,Woobat,flying,psychic,fighting&grass&ground&psychic,dark&electric&ghost&ice&rock,-1,https://gamepress.gg/pokemongo/pokemon/527
Snarl + Foul Play and Avalanche,2,461,2020-05-01,2.5,Weavile,dark,ice,dark&ghost&ice&psychic,bug&fairy&fighting&fire&rock&steel,2.5,https://gamepress.gg/pokemongo/pokemon/461
,-1,8,2020-05-01,-1,Wartortle,water,,fire&ice&steel&water,electric&grass,-1,https://gamepress.gg/pokemongo/pokemon/8
,-1,547,2019-09-17,-1,Whimsicott,fairy,grass,dark&dragon&electric&fighting&grass&ground&water,fire&flying&ice&poison&steel,-1,https://gamepress.gg/pokemongo/pokemon/547
Mud Shot + Mud Bomb and Blizzard&Mud Shot + Mud Bomb and Water Pulse,4,340,2020-03-11,0,Whiscash,ground,water,electric&fire&poison&rock&steel,grass,3.5,https://gamepress.gg/pokemongo/pokemon/340
Water Gun + Surf and Hyper Beam,1,321,2019-07-11,0,Wailord,water,,fire&ice&steel&water,electric&grass,1,https://gamepress.gg/pokemongo/pokemon/321
,-1,413-plant,2020-04-09,-1,Wormadam (Plant Cloak),bug,grass,electric&fighting&grass&ground&water,bug&fire&flying&ice&poison&rock,-1,https://gamepress.gg/pokemongo/pokemon/413-plant
* + Sludge Bomb and Seed Bomb&Bullet Seed + Power Whip or Seed Bomb and Sludge Bomb,2.5,70,2020-04-28,0,Weepinbell,grass,poison,electric&fairy&fighting&grass&water,fire&flying&ice&psychic,0,https://gamepress.gg/pokemongo/pokemon/70
,-1,320,2020-01-13,-1,Wailmer,water,,fire&ice&steel&water,electric&grass,-1,https://gamepress.gg/pokemongo/pokemon/320
Razor Leaf + Sludge Bomb and Moonblast,2,45,2020-05-01,0,Vileplume,grass,poison,electric&fairy&fighting&grass&water,fire&flying&ice&psychic,1,https://gamepress.gg/pokemongo/pokemon/45
Counter + Body Slam and Bulldoze,4,288,2020-01-02,0,Vigoroth,normal,,ghost,fighting,1,https://gamepress.gg/pokemongo/pokemon/288
,-1,365,2019-11-01,-1,Walrein,ice,water,ice&water,electric&fighting&grass&rock,-1,https://gamepress.gg/pokemongo/pokemon/365
,-1,13,2020-05-01,-1,Weedle,bug,poison,bug&fairy&fighting&grass&poison,fire&flying&psychic&rock,-1,https://gamepress.gg/pokemongo/pokemon/13
,-1,637,2019-09-16,-1,Volcarona,bug,fire,bug&fairy&fighting&grass&ice&steel,flying&rock&water,-1,https://gamepress.gg/pokemongo/pokemon/637
,-1,629,2019-09-15,-1,Vullaby,dark,flying,dark&ghost&grass&ground&psychic,electric&fairy&ice&rock,-1,https://gamepress.gg/pokemongo/pokemon/629
,-1,100,2020-04-28,-1,Voltorb,electric,,electric&flying&steel,ground,-1,https://gamepress.gg/pokemongo/pokemon/100
Vine Whip + Frenzy Plant and Sludge Bomb,4.5,3,2020-04-28,2,Venusaur,grass,poison,electric&fairy&fighting&grass&water,fire&flying&ice&psychic,3.5,https://gamepress.gg/pokemongo/pokemon/3
Quick Attack + Leaf Blade and Close Combat or Stone Edge,N,640,2020-05-13,2.5,Virizion,fighting,grass,dark&electric&grass&ground&rock&water,fairy&fire&flying&ice&poison&psychic,3,https://gamepress.gg/pokemongo/pokemon/640
,-1,313,2020-01-13,-1,Volbeat,bug,,fighting&grass&ground,fire&flying&rock,-1,https://gamepress.gg/pokemongo/pokemon/313
,-1,543,2020-03-19,-1,Venipede,bug,poison,bug&fairy&fighting&grass&poison,fire&flying&psychic&rock,-1,https://gamepress.gg/pokemongo/pokemon/543
,-1,494,2019-09-14,-1,Victini,fire,psychic,fairy&fighting&fire&grass&ice&psychic&steel,dark&ghost&ground&rock&water,-1,https://gamepress.gg/pokemongo/pokemon/494
Razor Leaf + Leaf Blade and Sludge Bomb&Razor Leaf + Leaf Blade and Acid Spray,3.5,71,2020-05-01,0,Victreebel,grass,poison,electric&fairy&fighting&grass&water,fire&flying&ice&psychic,2,https://gamepress.gg/pokemongo/pokemon/71
Bug Bite + X-Scissor and Power Gem or Bug Buzz,2.5,416,2020-01-23,0,Vespiquen,bug,flying,bug&fighting&grass&ground,electric&fire&flying&ice&rock,0,https://gamepress.gg/pokemongo/pokemon/416
,-1,329,2020-05-01,-1,Vibrava,dragon,ground,electric&fire&poison&rock,dragon&fairy&ice,-1,https://gamepress.gg/pokemongo/pokemon/329
,-1,48,2020-05-01,-1,Venonat,bug,poison,bug&fairy&fighting&grass&poison,fire&flying&psychic&rock,-1,https://gamepress.gg/pokemongo/pokemon/48
Shadow Claw + Close Combat and Play Rough,1,217,2020-05-08,3,Ursaring,normal,,ghost,fighting,3.5,https://gamepress.gg/pokemongo/pokemon/217
,-1,201,2019-04-18,-1,Unown,psychic,,,,-1,https://gamepress.gg/pokemongo/pokemon/201
,-1,584,2019-09-15,-1,Vanilluxe,ice,,ice,fighting&fire&rock&steel,-1,https://gamepress.gg/pokemongo/pokemon/584
Confusion + Poison Fang and Bug Buzz or Psychic,2.5,49,2020-04-28,0,Venomoth,bug,poison,bug&fairy&fighting&grass&poison,fire&flying&psychic&rock,0,https://gamepress.gg/pokemongo/pokemon/49
Air Slash+Sky Attack and Heat Wave,1,521,2019-10-05,0,Unfezant,flying,normal,bug&ghost&grass&ground,electric&ice&rock,0,https://gamepress.gg/pokemongo/pokemon/521
Watergun + Aqua Tail and Hydro Pump&Watergun + Aqua Tail and Last Resort,2,134,2020-04-29,2.5,Vaporeon,water,,fire&ice&steel&water,electric&grass,2,https://gamepress.gg/pokemongo/pokemon/134
Snarl + Last Resort* and Foul Play or Dark Pulse,4.5,197,2020-05-08,0,Umbreon,dark,,dark&ghost&psychic,bug&fairy&fighting,3.5,https://gamepress.gg/pokemongo/pokemon/197
,-1,236,2020-01-13,-1,Tyrogue,fighting,,bug&dark&rock,fairy&flying&psychic,-1,https://gamepress.gg/pokemongo/pokemon/236
Shadow Claw + Blast Burn* and Solar Beam,2,157,2020-04-29,2.5,Typhlosion,fire,,bug&fairy&fire&grass&ice&steel,ground&rock&water,4,https://gamepress.gg/pokemongo/pokemon/157
Smack Down* + Stone Edge and Crunch&Bite + Stone Edge and Crunch,2.5,248,2020-05-08,3.5,Tyranitar,dark,rock,dark&fire&flying&ghost&normal&poison&psychic,bug&fairy&fighting&grass&ground&steel&water,2,https://gamepress.gg/pokemongo/pokemon/248
,-1,535,2019-09-17,-1,Tympole,water,,fire&ice&steel&water,electric&grass,-1,https://gamepress.gg/pokemongo/pokemon/535
,-1,582,2019-09-15,-1,Vanillite,ice,,ice,fighting&fire&rock&steel,-1,https://gamepress.gg/pokemongo/pokemon/582
,-1,583,2019-09-15,-1,Vanillish,ice,,ice,fighting&fire&rock&steel,-1,https://gamepress.gg/pokemongo/pokemon/583
Confusion + Future Sight and Thunder,3.5,480,2019-12-27,2,Uxie,psychic,,fighting&psychic,bug&dark&ghost,4,https://gamepress.gg/pokemongo/pokemon/480
Counter + Mud Bomb and Sludge Bomb or Dynamic Punch,4,454,2020-04-01,0,Toxicroak,fighting,poison,bug&dark&fighting&grass&poison&rock,flying&ground&psychic,3.5,https://gamepress.gg/pokemongo/pokemon/454
,-1,520,2019-09-17,-1,Tranquill,flying,normal,bug&ghost&grass&ground,electric&ice&rock,-1,https://gamepress.gg/pokemongo/pokemon/520
Razor Leaf + Frenzy Plant and Sand Tomb,2,389,2020-04-29,1,Torterra,grass,ground,electric&ground&rock,bug&fire&flying&ice,1,https://gamepress.gg/pokemongo/pokemon/389
,-1,568,2020-03-07,-1,Trubbish,poison,,bug&fairy&fighting&grass&poison,ground&psychic,-1,https://gamepress.gg/pokemongo/pokemon/568
,-1,602,2019-09-15,-1,Tynamo,electric,,electric&flying&steel,ground,-1,https://gamepress.gg/pokemongo/pokemon/602
,-1,387,2020-05-25,-1,Turtwig,grass,,electric&grass&ground&water,bug&fire&flying&ice&poison,-1,https://gamepress.gg/pokemongo/pokemon/387
Razor Leaf + Leaf Blade and Aerial Ace&Air Slash + Leaf Blade and Aerial Ace,4.5,357,2019-12-23,0,Tropius,flying,grass,fighting&grass&ground&water,fire&flying&ice&poison&rock,0,https://gamepress.gg/pokemongo/pokemon/357
,-1,252,2020-01-13,-1,Treecko,grass,,electric&grass&ground&water,bug&fire&flying&ice&poison,-1,https://gamepress.gg/pokemongo/pokemon/252
Charm + Aerial Ace or Ancient Power and Flamethrower,3.5,468,2020-04-02,5,Togekiss,fairy,flying,bug&dark&dragon&fighting&grass&ground,electric&ice&poison&rock&steel,4,https://gamepress.gg/pokemongo/pokemon/468
,-1,328,2020-05-01,-1,Trapinch,ground,,electric&poison&rock,grass&ice&water,-1,https://gamepress.gg/pokemongo/pokemon/328
Air Slash + Grass Knot and Dark Pulse,N,641,2020-05-12,0,Tornadus (Incarnate Forme),flying,,bug&fighting&grass&ground,electric&ice&rock,0,https://gamepress.gg/pokemongo/pokemon/641
,-1,158,2020-05-08,-1,Totodile,water,,fire&ice&steel&water,electric&grass,-1,https://gamepress.gg/pokemongo/pokemon/158
,-1,255,2019-05-23,-1,Torchic,fire,,bug&fairy&fire&grass&ice&steel,ground&rock&water,-1,https://gamepress.gg/pokemongo/pokemon/255
,-1,175,2020-04-29,-1,Togepi,fairy,,bug&dark&dragon&fighting,poison&steel,-1,https://gamepress.gg/pokemongo/pokemon/175
Fire Spin + Overheat and Earthquake&Fire Spin + Overheat and Solar Beam,2,324,2019-12-16,0,Torkoal,fire,,bug&fairy&fire&grass&ice&steel,ground&rock&water,0,https://gamepress.gg/pokemongo/pokemon/324
,-1,176,2020-05-08,-1,Togetic,fairy,flying,bug&dark&dragon&fighting&grass&ground,electric&ice&poison&rock&steel,-1,https://gamepress.gg/pokemongo/pokemon/176
,-1,564,2019-09-14,-1,Tirtouga,rock,water,fire&flying&ice&normal&poison,electric&fighting&grass&ground,-1,https://gamepress.gg/pokemongo/pokemon/564
Smack Down + Rock Slide and Close Combat,N,639,2020-05-25,1,Terrakion,fighting,rock,bug&dark&fire&normal&poison&rock,fairy&fighting&grass&ground&psychic&steel&water,0,https://gamepress.gg/pokemongo/pokemon/639
,-1,532,2020-05-30,-1,Timburr,fighting,,bug&dark&rock,fairy&flying&psychic,-1,https://gamepress.gg/pokemongo/pokemon/532
Thunder Shock + Brick Break or Thunder Punch and Thunder or Crunch,N,642,2020-03-11,2,Thundurus (Incarnate Forme),electric,flying,bug&fighting&flying&grass&ground&steel,ice&rock,2.5,https://gamepress.gg/pokemongo/pokemon/642
Low Kick + Body Slam & Low Sweep,0,538,2020-03-11,0,Throh,fighting,,bug&dark&rock,fairy&flying&psychic,0,https://gamepress.gg/pokemongo/pokemon/538
Vine Whip + Grass Knot and Rock Slide or Sludge Bomb,2,465,2020-04-02,1,Tangrowth,grass,,electric&grass&ground&water,bug&fire&flying&ice&poison,2,https://gamepress.gg/pokemongo/pokemon/465
,-1,498,2019-09-16,-1,Tepig,fire,,bug&fairy&fire&grass&ice&steel,ground&rock&water,-1,https://gamepress.gg/pokemongo/pokemon/498
,-1,72,2019-11-19,-1,Tentacool,poison,water,bug&fairy&fighting&fire&ice&poison&steel&water,electric&ground&psychic,-1,https://gamepress.gg/pokemongo/pokemon/72
Poison Jab + Acid Spray and Hydro Pump or Blizzard or Sludge Wave,2.5,73,2020-03-14,0,Tentacruel,poison,water,bug&fairy&fighting&fire&ice&poison&steel&water,electric&ground&psychic,1.5,https://gamepress.gg/pokemongo/pokemon/73
Tackle + Horn Attack and Earthquake or Iron Head,1,128,2019-07-01,1,Tauros,normal,,ghost,fighting,1,https://gamepress.gg/pokemongo/pokemon/128
,-1,216,2020-01-13,-1,Teddiursa,normal,,ghost,fighting,-1,https://gamepress.gg/pokemongo/pokemon/216
Mud Shot + Hydro Cannon and Earthquake Or Sludge Wave,4.5,260,2020-05-01,4,Swampert,ground,water,electric&fire&poison&rock&steel,grass,4.5,https://gamepress.gg/pokemongo/pokemon/260
,-1,114,2020-04-28,-1,Tangela,grass,,electric&grass&ground&water,bug&fire&flying&ice&poison,-1,https://gamepress.gg/pokemongo/pokemon/114
Confusion + Psychic and Aerial Ace,1,528,2020-05-15,0,Swoobat,flying,psychic,fighting&grass&ground&psychic,dark&electric&ghost&ice&rock,0,https://gamepress.gg/pokemongo/pokemon/528
,-1,220,2019-04-29,-1,Swinub,ground,ice,electric&poison,fighting&fire&grass&steel&water,-1,https://gamepress.gg/pokemongo/pokemon/220
,-1,333,2020-01-13,-1,Swablu,flying,normal,bug&ghost&grass&ground,electric&ice&rock,-1,https://gamepress.gg/pokemongo/pokemon/333
,-1,276,2019-05-07,-1,Taillow,flying,normal,bug&ghost&grass&ground,electric&ice&rock,-1,https://gamepress.gg/pokemongo/pokemon/276
,-1,581,2019-09-15,-1,Swanna,flying,water,bug&fighting&fire&ground&steel&water,electric&rock,-1,https://gamepress.gg/pokemongo/pokemon/581
Wing Attack + Sky Attack and Brave Bird,1,277,2019-07-06,0,Swellow,flying,normal,bug&ghost&grass&ground,electric&ice&rock,0,https://gamepress.gg/pokemongo/pokemon/277
,-1,317,2020-01-13,-1,Swalot,poison,,bug&fairy&fighting&grass&poison,ground&psychic,-1,https://gamepress.gg/pokemongo/pokemon/317
,-1,541,2019-09-17,-1,Swadloon,bug,grass,electric&fighting&grass&ground&water,bug&fire&flying&ice&poison&rock,-1,https://gamepress.gg/pokemongo/pokemon/541
,-1,283,2020-01-13,-1,Surskit,bug,water,fighting&ground&ice&steel&water,electric&flying&rock,-1,https://gamepress.gg/pokemongo/pokemon/283
Dragon Tail or Thunder Fang + Crunch and Earthquake,3,208,2019-12-27,1.5,Steelix,ground,steel,bug&dragon&electric&fairy&flying&normal&poison&psychic&rock&steel,fighting&fire&ground&water,4,https://gamepress.gg/pokemongo/pokemon/208
,-1,191,2019-05-07,-1,Sunkern,grass,,electric&grass&ground&water,bug&fire&flying&ice&poison,-1,https://gamepress.gg/pokemongo/pokemon/191
Snarl or Ice Fang + Bubble Beam and Hydro Pump or Ice Beam,3,245,2020-04-29,3.5,Suicune,water,,fire&ice&steel&water,electric&grass,3.5,https://gamepress.gg/pokemongo/pokemon/245
Bullet Seed or Razor Leaf + Sludge Bomb and Petal Blizzard,1,192,2020-01-13,0,Sunflora,grass,,electric&grass&ground&water,bug&fire&flying&ice&poison,0,https://gamepress.gg/pokemongo/pokemon/192
Counter+Rock Slide and Earthquake,2,185,2019-08-05,1,Sudowoodo,rock,,fire&flying&normal&poison,fighting&grass&ground&steel&water,1,https://gamepress.gg/pokemongo/pokemon/185
Lick + Crunch and Wild Charge,1,508,2020-02-08,0,Stoutland,normal,,ghost,fighting,0,https://gamepress.gg/pokemongo/pokemon/508
,-1,234,2019-05-07,-1,Stantler,normal,,ghost,fighting,-1,https://gamepress.gg/pokemongo/pokemon/234
,-1,434,2019-07-22,-1,Stunky,dark,poison,dark&ghost&grass&poison&psychic,ground,-1,https://gamepress.gg/pokemongo/pokemon/434
,-1,120,2019-05-07,-1,Staryu,water,,fire&ice&steel&water,electric&grass,-1,https://gamepress.gg/pokemongo/pokemon/120
,-1,121,2020-04-29,-1,Starmie,psychic,water,fighting&fire&ice&psychic&steel&water,bug&dark&electric&ghost&grass,-1,https://gamepress.gg/pokemongo/pokemon/121
Wing Attack or Quick Attack + Brave Bird and Close Combat,1,398,2019-07-05,0,Staraptor,flying,normal,bug&ghost&grass&ground,electric&ice&rock,1,https://gamepress.gg/pokemongo/pokemon/398
,-1,397,2020-01-13,-1,Staravia,flying,normal,bug&ghost&grass&ground,electric&ice&rock,-1,https://gamepress.gg/pokemongo/pokemon/397
,-1,396,2020-01-13,-1,Starly,flying,normal,bug&ghost&grass&ground,electric&ice&rock,-1,https://gamepress.gg/pokemongo/pokemon/396
,-1,7,2020-05-01,-1,Squirtle,water,,fire&ice&steel&water,electric&grass,-1,https://gamepress.gg/pokemongo/pokemon/7
,-1,325,2020-03-27,-1,Spoink,psychic,,fighting&psychic,bug&dark&ghost,-1,https://gamepress.gg/pokemongo/pokemon/325
Sucker Punch + Shadow Ball and Ominous Wind,2.5,442,2019-07-11,0,Spiritomb,dark,ghost,fighting&normal&poison&psychic,fairy,1,https://gamepress.gg/pokemongo/pokemon/442
,-1,327,2019-08-08,-1,Spinda,normal,,ghost,fighting,-1,https://gamepress.gg/pokemongo/pokemon/327
,-1,167,2019-05-07,-1,Spinarak,bug,poison,bug&fairy&fighting&grass&poison,fire&flying&psychic&rock,-1,https://gamepress.gg/pokemongo/pokemon/167
Lick + Body Slam and Earthquake or Superpower or Outrage,3,143,2020-04-29,4.5,Snorlax,normal,,ghost,fighting,4.5,https://gamepress.gg/pokemongo/pokemon/143
,-1,21,2020-04-28,-1,Spearow,flying,normal,bug&ghost&grass&ground,electric&ice&rock,-1,https://gamepress.gg/pokemongo/pokemon/21
,-1,363,2019-05-07,-1,Spheal,ice,water,ice&water,electric&fighting&grass&rock,-1,https://gamepress.gg/pokemongo/pokemon/363
,-1,338,2019-09-28,-1,Solrock,psychic,rock,fire&flying&normal&poison&psychic,bug&dark&ghost&grass&ground&steel&water,-1,https://gamepress.gg/pokemongo/pokemon/338
,-1,215,2020-05-08,-1,Sneasel,dark,ice,dark&ghost&ice&psychic,bug&fairy&fighting&fire&rock&steel,-1,https://gamepress.gg/pokemongo/pokemon/215
,-1,577,2019-09-15,-1,Solosis,psychic,,fighting&psychic,bug&dark&ghost,-1,https://gamepress.gg/pokemongo/pokemon/577
,0,235,2019-07-01,0,Smeargle,normal,,ghost,fighting,0,https://gamepress.gg/pokemongo/pokemon/235
,-1,459,2019-05-15,-1,Snover,grass,ice,electric&grass&ground&water,bug&fighting&fire&flying&poison&rock&steel,-1,https://gamepress.gg/pokemongo/pokemon/459
,-1,209,2020-01-13,-1,Snubbull,fairy,,bug&dark&dragon&fighting,poison&steel,-1,https://gamepress.gg/pokemongo/pokemon/209
,-1,361,2020-01-13,-1,Snorunt,ice,,ice,fighting&fire&rock&steel,-1,https://gamepress.gg/pokemongo/pokemon/361
,-1,495,2019-09-16,-1,Snivy,grass,,electric&grass&ground&water,bug&fire&flying&ice&poison,-1,https://gamepress.gg/pokemongo/pokemon/495
Yawn + Play Rough and Earthquake,Yawn,289,2020-04-29,Yawn,Slaking,normal,,ghost,fighting,Yawn,https://gamepress.gg/pokemongo/pokemon/289
,-1,287,2019-05-21,-1,Slakoth,normal,,ghost,fighting,-1,https://gamepress.gg/pokemongo/pokemon/287
Confusion + Ice Beam and Water Pulse or Psychic&Water Gun + Ice Beam and Water Pulse or Psychic,2,80,2019-09-28,0,Slowbro,psychic,water,fighting&fire&ice&psychic&steel&water,bug&dark&electric&ghost&grass,2,https://gamepress.gg/pokemongo/pokemon/80
,-1,238,2020-04-29,-1,Smoochum,ice,psychic,ice&psychic,bug&dark&fire&ghost&rock&steel,-1,https://gamepress.gg/pokemongo/pokemon/238
Confusion or Water Gun + Water Pulse and Psyshock or Psychic,1.5,79,2020-03-27,0,Slowpoke,psychic,water,fighting&fire&ice&psychic&steel&water,bug&dark&electric&ghost&grass,0,https://gamepress.gg/pokemongo/pokemon/79
Confusion or Water Gun + Psychic and Blizzard or Fire Blast,1.5,199,2020-01-28,0,Slowking,psychic,water,fighting&fire&ice&psychic&steel&water,bug&dark&electric&ghost&grass,1,https://gamepress.gg/pokemongo/pokemon/199
,-1,218,2019-05-07,-1,Slugma,fire,,bug&fairy&fire&grass&ice&steel,ground&rock&water,-1,https://gamepress.gg/pokemongo/pokemon/218
,-1,451,2020-01-13,-1,Skorupi,bug,poison,bug&fairy&fighting&grass&poison,fire&flying&psychic&rock,-1,https://gamepress.gg/pokemongo/pokemon/451
Poison Jab or Bite + Crunch and Sludge Bomb or Flamethrower,3.5,435,2020-05-25,0,Skuntank,dark,poison,dark&ghost&grass&poison&psychic,ground,2.5,https://gamepress.gg/pokemongo/pokemon/435
,-1,188,2020-01-13,-1,Skiploom,flying,grass,fighting&grass&ground&water,fire&flying&ice&poison&rock,-1,https://gamepress.gg/pokemongo/pokemon/188
,-1,300,2020-01-13,-1,Skitty,normal,,ghost,fighting,-1,https://gamepress.gg/pokemongo/pokemon/300
Water Gun OR Bite+Surf and Crunch,1,516,2019-10-05,0,Simipour,water,,fire&ice&steel&water,electric&grass,0,https://gamepress.gg/pokemongo/pokemon/516
,-1,865,2020-06-02,-1,Sirfetch'd,fighting,,bug&dark&rock,fairy&flying&psychic,-1,https://gamepress.gg/pokemongo/pokemon/865
Vine Whip+Grass Knot and Crunch,1.5,512,2019-10-05,0,Simisage,grass,,electric&grass&ground&water,bug&fire&flying&ice&poison,1,https://gamepress.gg/pokemongo/pokemon/512
Fire Spin+Crunch and Flamethrower,1,514,2019-10-05,0,Simisear,fire,,bug&fairy&fire&grass&ice&steel,ground&rock&water,0,https://gamepress.gg/pokemongo/pokemon/514
,-1,285,2020-01-13,-1,Shroomish,grass,,electric&grass&ground&water,bug&fire&flying&ice&poison,-1,https://gamepress.gg/pokemongo/pokemon/285
Air Slash + Sky Attack and Flash Cannon,5,227,2020-05-08,0,Skarmory,flying,steel,bug&dragon&fairy&flying&grass&ground&normal&poison&psychic&steel,electric&fire,1,https://gamepress.gg/pokemongo/pokemon/227
Snarl + Leaf Blade and Foul Play&Bullet Seed* + Leaf Blade and Foul Play&Razor Leaf + Leaf Blade and Foul Play,4,275,2020-05-26,0,Shiftry,dark,grass,dark&electric&ghost&grass&ground&psychic&water,bug&fairy&fighting&fire&flying&ice&poison,4,https://gamepress.gg/pokemongo/pokemon/275
,-1,561,2019-09-14,-1,Sigilyph,flying,psychic,fighting&grass&ground&psychic,dark&electric&ghost&ice&rock,-1,https://gamepress.gg/pokemongo/pokemon/561
,-1,353,2020-05-01,-1,Shuppet,ghost,,bug&fighting&normal&poison,dark&ghost,-1,https://gamepress.gg/pokemongo/pokemon/353
,-1,266,2020-01-13,-1,Silcoon,bug,,fighting&grass&ground,fire&flying&rock,-1,https://gamepress.gg/pokemongo/pokemon/266
Rock Throw + Rock Blast and Stone Edge,0,213,2020-05-30,0,Shuckle,bug,rock,normal&poison,rock&steel&water,0,https://gamepress.gg/pokemongo/pokemon/213
,-1,616,2019-09-15,-1,Shelmet,bug,,fighting&grass&ground,fire&flying&rock,-1,https://gamepress.gg/pokemongo/pokemon/616
,-1,422,2019-05-17,-1,Shellos,water,,fire&ice&steel&water,electric&grass,-1,https://gamepress.gg/pokemongo/pokemon/422
,-1,410,2020-03-11,-1,Shieldon,rock,steel,bug&dragon&fairy&flying&ice&normal&poison&psychic&rock,fighting&ground&water,-1,https://gamepress.gg/pokemongo/pokemon/410
Dragon Breath + Flamethrower and Twister,1.5,372,2020-05-01,0,Shelgon,dragon,,electric&fire&grass&water,dragon&fairy&ice,0,https://gamepress.gg/pokemongo/pokemon/372
,-1,403,2020-03-11,-1,Shinx,electric,,electric&flying&steel,ground,-1,https://gamepress.gg/pokemongo/pokemon/403
,-1,90,2020-01-13,-1,Shellder,water,,fire&ice&steel&water,electric&grass,-1,https://gamepress.gg/pokemongo/pokemon/90
Waterfall + Crunch and Poison Fang,1,319,2020-05-15,0,Sharpedo,dark,water,dark&fire&ghost&ice&psychic&steel&water,bug&electric&fairy&fighting&grass,0,https://gamepress.gg/pokemongo/pokemon/319
,-1,492,2020-01-13,-1,Shaymin (Land Forme),grass,,electric&grass&ground&water,bug&fire&flying&ice&poison,-1,https://gamepress.gg/pokemongo/pokemon/492
Bubble or Mud Shot + Earth Power and Muddy Water or Sludge Bomb,3,537,2020-01-10,0,Seismitoad,ground,water,electric&fire&poison&rock&steel,grass,3.5,https://gamepress.gg/pokemongo/pokemon/537
,-1,496,2019-09-14,-1,Servine,grass,,electric&grass&ground&water,bug&fire&flying&ice&poison,-1,https://gamepress.gg/pokemongo/pokemon/496
,-1,540,2019-09-17,-1,Sewaddle,bug,grass,electric&fighting&grass&ground&water,bug&fire&flying&ice&poison&rock,-1,https://gamepress.gg/pokemongo/pokemon/540
Poison Jab+Poison Fang and Crunch,1.5,336,2019-09-27,0,Seviper,poison,,bug&fairy&fighting&grass&poison,ground&psychic,0,https://gamepress.gg/pokemongo/pokemon/336
,-1,86,2020-04-28,-1,Seel,water,,fire&ice&steel&water,electric&grass,-1,https://gamepress.gg/pokemongo/pokemon/86
,-1,559,2019-09-14,-1,Scraggy,dark,fighting,dark&ghost&psychic&rock,fairy&fighting&flying,-1,https://gamepress.gg/pokemongo/pokemon/559
Counter + Foul Play and Power-Up Punch,3.5,560,2020-03-26,1,Scrafty,dark,fighting,dark&ghost&psychic&rock,fairy&fighting&flying,4,https://gamepress.gg/pokemongo/pokemon/560
,-1,273,2020-05-01,-1,Seedot,grass,,electric&grass&ground&water,bug&fire&flying&ice&poison,-1,https://gamepress.gg/pokemongo/pokemon/273
,-1,161,2019-09-03,-1,Sentret,normal,,ghost,fighting,-1,https://gamepress.gg/pokemongo/pokemon/161
Powder Snow or Water Gun + Body Slam and Aurora Beam or Water Pulse,3,364,2020-01-02,0,Sealeo,ice,water,ice&water,electric&fighting&grass&rock,0,https://gamepress.gg/pokemongo/pokemon/364
Poison Jab + Megahorn and X-Scissor or Sludge Bomb,2.5,545,2020-04-01,0,Scolipede,bug,poison,bug&fairy&fighting&grass&poison,fire&flying&psychic&rock,1.5,https://gamepress.gg/pokemongo/pokemon/545
Fury Cutter or Bullet Punch + Night Slash and Iron Head or X-Scissor,2,212,2020-05-01,1.5,Scizor,bug,steel,bug&dragon&fairy&grass&ice&normal&poison&psychic&steel,fire,2.5,https://gamepress.gg/pokemongo/pokemon/212
Bullet Seed + Leaf Blade and Frenzy Plant or Earthquake or Aerial Ace,2,254,2020-04-29,1,Sceptile,grass,,electric&grass&ground&water,bug&fire&flying&ice&poison,2,https://gamepress.gg/pokemongo/pokemon/254
Poison Jab OR Waterfall+Ice Beam and Drill Run,1,119,2020-04-29,1,Seaking,water,,fire&ice&steel&water,electric&grass,1,https://gamepress.gg/pokemongo/pokemon/119
,-1,373,2020-05-01,-1,Salamence,dragon,flying,bug&fighting&fire&grass&ground&water,dragon&fairy&ice&rock,-1,https://gamepress.gg/pokemongo/pokemon/373
Fury Cutter + X-Scissor or Night Slash and Bug Buzz* or Aerial Ace,1.5,123,2020-04-29,1,Scyther,bug,flying,bug&fighting&grass&ground,electric&fire&flying&ice&rock,1.5,https://gamepress.gg/pokemongo/pokemon/123
,-1,117,2020-04-29,-1,Seadra,water,,fire&ice&steel&water,electric&grass,-1,https://gamepress.gg/pokemongo/pokemon/117
Poison Jab+Sludge Bomb and Grass Knot&Poison Jab+Sludge Bomb and Dazzling Gleam&Poison Jab+Grass Knot and Dazzling Gleam,0,407,2020-05-25,1,Roserade,grass,poison,electric&fairy&fighting&grass&water,fire&flying&ice&psychic,1,https://gamepress.gg/pokemongo/pokemon/407
Poison Jab + Body Slam and Focus Blast,2,539,2020-01-10,1,Sawk,fighting,,bug&dark&rock,fairy&flying&psychic,2,https://gamepress.gg/pokemongo/pokemon/539
,-1,524,2020-01-10,-1,Roggenrola,rock,,fire&flying&normal&poison,fighting&grass&ground&steel&water,-1,https://gamepress.gg/pokemongo/pokemon/524
,-1,551,2019-09-17,-1,Sandile,dark,ground,dark&electric&ghost&poison&psychic&rock,bug&fairy&fighting&grass&ice&water,-1,https://gamepress.gg/pokemongo/pokemon/551
,-1,586,2019-09-14,-1,Sawsbuck,grass,normal,electric&ghost&grass&ground&water,bug&fighting&fire&flying&ice&poison,-1,https://gamepress.gg/pokemongo/pokemon/586
,-1,627,2019-09-15,-1,Rufflet,flying,normal,bug&ghost&grass&ground,electric&ice&rock,-1,https://gamepress.gg/pokemongo/pokemon/627
Shadow Claw + Foul Play and Power Gem,4.5,302,2020-05-30,0,Sableye,dark,ghost,fighting&normal&poison&psychic,fairy,0,https://gamepress.gg/pokemongo/pokemon/302
Dragon Breath + Overheat or Draco Meteor and Crunch,N,643,2020-05-30,3.5,Reshiram,dragon,fire,bug&electric&fire&grass&steel,dragon&ground&rock,2.5,https://gamepress.gg/pokemongo/pokemon/643
,-1,479,2020-01-13,-1,Rotom,electric,ghost,bug&electric&fighting&flying&normal&poison&steel,dark&ghost&ground,-1,https://gamepress.gg/pokemongo/pokemon/479
,-1,315,2020-01-13,-1,Roselia,grass,poison,electric&fairy&fighting&grass&water,fire&flying&ice&psychic,-1,https://gamepress.gg/pokemongo/pokemon/315
Lock-On + Flash Cannon and Focus Blast,5,379,2020-03-11,2.5,Registeel,steel,,bug&dragon&fairy&flying&grass&ice&normal&poison&psychic&rock&steel,fighting&fire&ground,5,https://gamepress.gg/pokemongo/pokemon/379
Hidden Power + Thunder and Focus Blast,N,486,2020-04-09,3,Regigigas,normal,,ghost,fighting,0,https://gamepress.gg/pokemongo/pokemon/486
Lock-On + Stone Edge and Focus Blast,3.5,377,2020-01-28,3.5,Regirock,rock,,fire&flying&normal&poison,fighting&grass&ground&steel&water,3,https://gamepress.gg/pokemongo/pokemon/377
,-1,447,2020-01-13,-1,Riolu,fighting,,bug&dark&rock,fairy&flying&psychic,-1,https://gamepress.gg/pokemongo/pokemon/447
,-1,112,2020-05-30,-1,Rhydon,ground,rock,electric&fire&flying&normal&poison&rock,fighting&grass&ground&ice&steel&water,-1,https://gamepress.gg/pokemongo/pokemon/112
Hidden Power + Shadow Ball and Thunder or Future Sight,1,579,2019-09-15,0,Reuniclus,psychic,,fighting&psychic,bug&dark&ghost,1,https://gamepress.gg/pokemongo/pokemon/579
Dragon Tail+Outrage and Ancient Power,-,384,2020-01-28,3,Rayquaza,dragon,flying,bug&fighting&fire&grass&ground&water,dragon&fairy&ice&rock,2,https://gamepress.gg/pokemongo/pokemon/384
,-1,111,2020-02-21,-1,Rhyhorn,ground,rock,electric&fire&flying&normal&poison&rock,fighting&grass&ground&ice&steel&water,-1,https://gamepress.gg/pokemongo/pokemon/111
Smack Down+Rockslide and Flamethrower,1,409,2019-10-05,2,Rampardos,rock,,fire&flying&normal&poison,fighting&grass&ground&steel&water,1,https://gamepress.gg/pokemongo/pokemon/409
,-1,223,2019-05-07,-1,Remoraid,water,,fire&ice&steel&water,electric&grass,-1,https://gamepress.gg/pokemongo/pokemon/223
Water Gun + Aqua Tail and Ancient Power or Hydro Pump,2,369,2020-04-02,0,Relicanth,rock,water,fire&flying&ice&normal&poison,electric&fighting&grass&ground,1,https://gamepress.gg/pokemongo/pokemon/369
Lock-On + Earthquake and Blizzard,3.5,378,2019-11-02,3.5,Regice,ice,,ice,fighting&fire&rock&steel,3.5,https://gamepress.gg/pokemongo/pokemon/378
Water Gun + Aqua Tail and Ice Beam or Acid Spray or Sludge Wave,2.5,211,2019-08-05,0,Qwilfish,poison,water,bug&fairy&fighting&fire&ice&poison&steel&water,electric&ground&psychic,1,https://gamepress.gg/pokemongo/pokemon/211
,-1,78,2020-04-28,-1,Rapidash,fire,,bug&fairy&fire&grass&ice&steel,ground&rock&water,-1,https://gamepress.gg/pokemongo/pokemon/78
,-1,280,2020-05-01,-1,Ralts,fairy,psychic,dragon&fighting&psychic,ghost&poison&steel,-1,https://gamepress.gg/pokemongo/pokemon/280
,-1,156,2020-01-13,-1,Quilava,fire,,bug&fairy&fire&grass&ice&steel,ground&rock&water,-1,https://gamepress.gg/pokemongo/pokemon/156
Spark OR Rock Throw + Rock Slide and Thunderbolt,4.5,476,2019-12-23,0,Probopass,rock,steel,bug&dragon&fairy&flying&ice&normal&poison&psychic&rock,fighting&ground&water,2,https://gamepress.gg/pokemongo/pokemon/476
,-1,509,2020-02-25,-1,Purrloin,dark,,dark&ghost&psychic,bug&fairy&fighting,-1,https://gamepress.gg/pokemongo/pokemon/509
Bubble + Icy Wind or Bubble Beam and Hydro Pump,1.5,394,2020-01-03,0,Prinplup,water,,fire&ice&steel&water,electric&grass,0,https://gamepress.gg/pokemongo/pokemon/394
Mud Shot + Stone Edge and Earthquake&Mud Shot + Acid Spray and Stone Edge or Earthquake,4,195,2019-07-11,0,Quagsire,ground,water,electric&fire&poison&rock&steel,grass,0,https://gamepress.gg/pokemongo/pokemon/195
,-1,474,2020-05-01,-1,Porygon-Z,normal,,ghost,fighting,-1,https://gamepress.gg/pokemongo/pokemon/474
,-1,432,2020-01-13,-1,Purugly,normal,,ghost,fighting,-1,https://gamepress.gg/pokemongo/pokemon/432
Mud Shot + Dynamic Punch and Ice Punch or Hydro Pump&Bubble + Ice Punch and Power-Up Punch or Dynamic Punch,3,62,2020-04-28,0,Poliwrath,fighting,water,bug&dark&fire&ice&rock&steel&water,electric&fairy&flying&grass&psychic,4,https://gamepress.gg/pokemongo/pokemon/62
Counter + Cross Chop* or Close Combat and Night Slash,2.5,57,2020-04-28,0,Primeape,fighting,,bug&dark&rock,fairy&flying&psychic,3.5,https://gamepress.gg/pokemongo/pokemon/57
,-1,247,2020-05-01,-1,Pupitar,ground,rock,electric&fire&flying&normal&poison&rock,fighting&grass&ground&ice&steel&water,-1,https://gamepress.gg/pokemongo/pokemon/247
,-1,233,2020-05-01,-1,Porygon2,normal,,ghost,fighting,-1,https://gamepress.gg/pokemongo/pokemon/233
Mud Shot or Bubble + Surf and Earthquake* or Blizzard,2,186,2020-04-29,0,Politoed,water,,fire&ice&steel&water,electric&grass,3.5,https://gamepress.gg/pokemongo/pokemon/186
,-1,261,2020-01-13,-1,Poochyena,dark,,dark&ghost&psychic,bug&fairy&fighting,-1,https://gamepress.gg/pokemongo/pokemon/261
,-1,77,2020-04-28,-1,Ponyta,fire,,bug&fairy&fire&grass&ice&steel,ground&rock&water,-1,https://gamepress.gg/pokemongo/pokemon/77
,-1,137,2020-05-01,-1,Porygon,normal,,ghost,fighting,-1,https://gamepress.gg/pokemongo/pokemon/137
Fury Cutter + X-Scissor and Close Combat or Superpower,2,127,2020-05-01,2,Pinsir,bug,,fighting&grass&ground,fire&flying&rock,2,https://gamepress.gg/pokemongo/pokemon/127
,-1,61,2019-08-10,-1,Poliwhirl,water,,fire&ice&steel&water,electric&grass,-1,https://gamepress.gg/pokemongo/pokemon/61
Spark + Discharge and Thunderbolt,1.5,311,2020-01-23,0,Plusle,electric,,electric&flying&steel,ground,0,https://gamepress.gg/pokemongo/pokemon/311
,-1,60,2020-05-01,-1,Poliwag,water,,fire&ice&steel&water,electric&grass,-1,https://gamepress.gg/pokemongo/pokemon/60
,-1,16,2019-05-07,-1,Pidgey,flying,normal,bug&ghost&grass&ground,electric&ice&rock,-1,https://gamepress.gg/pokemongo/pokemon/16
,-1,393,2020-05-25,-1,Piplup,water,,fire&ice&steel&water,electric&grass,-1,https://gamepress.gg/pokemongo/pokemon/393
,-1,204,2020-05-08,-1,Pineco,bug,,fighting&grass&ground,fire&flying&rock,-1,https://gamepress.gg/pokemongo/pokemon/204
Powder Snow or Ice Shard + Avalanche and Stone Edge,2,221,2020-03-11,0,Piloswine,ground,ice,electric&poison,fighting&fire&grass&steel&water,2.5,https://gamepress.gg/pokemongo/pokemon/221
,-1,25,2020-04-28,-1,Pikachu,electric,,electric&flying&steel,ground,-1,https://gamepress.gg/pokemongo/pokemon/25
,-1,499,2019-09-17,-1,Pignite,fighting,fire,bug&dark&fire&grass&ice&steel,flying&ground&psychic&water,-1,https://gamepress.gg/pokemongo/pokemon/499
,-1,519,2019-12-17,-1,Pidove,flying,normal,bug&ghost&grass&ground,electric&ice&rock,-1,https://gamepress.gg/pokemongo/pokemon/519
Shadow Claw + Foul Play and Close Combat or Play Rough,3,863,2020-06-02,0,Perrserker,steel,,bug&dragon&fairy&flying&grass&ice&normal&poison&psychic&rock&steel,fighting&fire&ground,2.5,https://gamepress.gg/pokemongo/pokemon/863
,-1,17,2020-01-13,-1,Pidgeotto,flying,normal,bug&ghost&grass&ground,electric&ice&rock,-1,https://gamepress.gg/pokemongo/pokemon/17
Wing Attack+Brave Bird and Hurricane&Steel Wing+Brave Bird and Hurricane,1,18,2020-04-28,0,Pidgeot,flying,normal,bug&ghost&grass&ground,electric&ice&rock,0,https://gamepress.gg/pokemongo/pokemon/18
,-1,548,2019-09-16,-1,Petilil,grass,,electric&grass&ground&water,bug&fire&flying&ice&poison,-1,https://gamepress.gg/pokemongo/pokemon/548
,-1,172,2020-01-13,-1,Pichu,electric,,electric&flying&steel,ground,-1,https://gamepress.gg/pokemongo/pokemon/172
,-1,231,2019-05-07,-1,Phanpy,ground,,electric&poison&rock,grass&ice&water,-1,https://gamepress.gg/pokemongo/pokemon/231
,-1,489,2020-01-13,-1,Phione,water,,fire&ice&steel&water,electric&grass,-1,https://gamepress.gg/pokemongo/pokemon/489
,-1,624,2019-09-15,-1,Pawniard,dark,steel,dark&dragon&flying&ghost&grass&ice&normal&poison&psychic&rock&steel,fighting&fire&ground,-1,https://gamepress.gg/pokemongo/pokemon/624
,-1,279,2019-11-19,-1,Pelipper,flying,water,bug&fighting&fire&ground&steel&water,electric&rock,-1,https://gamepress.gg/pokemongo/pokemon/279
,-1,515,2019-09-17,-1,Panpour,water,,fire&ice&steel&water,electric&grass,-1,https://gamepress.gg/pokemongo/pokemon/515
Dragon Breath + Aqua Tail and Draco Meteor or Fire Blast,0,484,2020-05-20,4.5,Palkia,dragon,water,fire&steel&water,dragon&fairy,1,https://gamepress.gg/pokemongo/pokemon/484
,-1,501,2020-02-25,-1,Oshawott,water,,fire&ice&steel&water,electric&grass,-1,https://gamepress.gg/pokemongo/pokemon/501
,-1,504,2020-02-25,-1,Patrat,normal,,ghost,fighting,-1,https://gamepress.gg/pokemongo/pokemon/504
Fury Cutter+X-Scissor and Solar Beam,0,47,2019-07-01,0,Parasect,bug,grass,electric&fighting&grass&ground&water,bug&fire&flying&ice&poison&rock,0,https://gamepress.gg/pokemongo/pokemon/47
,-1,513,2019-09-17,-1,Pansear,fire,,bug&fairy&fire&grass&ice&steel,ground&rock&water,-1,https://gamepress.gg/pokemongo/pokemon/513
,-1,46,2019-05-07,-1,Paras,bug,grass,electric&fighting&grass&ground&water,bug&fire&flying&ice&poison&rock,-1,https://gamepress.gg/pokemongo/pokemon/46
,-1,511,2019-09-17,-1,Pansage,grass,,electric&grass&ground&water,bug&fire&flying&ice&poison,-1,https://gamepress.gg/pokemongo/pokemon/511
,-1,536,2019-09-17,-1,Palpitoad,ground,water,electric&fire&poison&rock&steel,grass,-1,https://gamepress.gg/pokemongo/pokemon/536
,-1,43,2020-05-01,-1,Oddish,grass,poison,electric&fairy&fighting&grass&water,fire&flying&ice&psychic,-1,https://gamepress.gg/pokemongo/pokemon/43
Volt Switch + Thunder Punch and Thunder or Thunderbolt,2,417,2020-05-07,0,Pachirisu,electric,,electric&flying&steel,ground,0,https://gamepress.gg/pokemongo/pokemon/417
,-1,139,2020-05-30,-1,Omastar,rock,water,fire&flying&ice&normal&poison,electric&fighting&grass&ground,-1,https://gamepress.gg/pokemongo/pokemon/139
,-1,95,2020-04-28,-1,Onix,ground,rock,electric&fire&flying&normal&poison&rock,fighting&grass&ground&ice&steel&water,-1,https://gamepress.gg/pokemongo/pokemon/95
,-1,138,2020-04-29,-1,Omanyte,rock,water,fire&flying&ice&normal&poison,electric&fighting&grass&ground,-1,https://gamepress.gg/pokemongo/pokemon/138
,-1,274,2020-05-01,-1,Nuzleaf,dark,grass,dark&electric&ghost&grass&ground&psychic&water,bug&fairy&fighting&fire&flying&ice&poison,-1,https://gamepress.gg/pokemongo/pokemon/274
,-1,299,2020-05-30,-1,Nosepass,rock,,fire&flying&normal&poison,fighting&grass&ground&steel&water,-1,https://gamepress.gg/pokemongo/pokemon/299
,-1,33,2019-07-22,-1,Nidorino,poison,,bug&fairy&fighting&grass&poison,ground&psychic,-1,https://gamepress.gg/pokemongo/pokemon/33
Wing Attack + Sky Attack and Psychic&Wing Attack + Sky Attack and Night Shade,3.5,164,2020-01-02,0,Noctowl,flying,normal,bug&ghost&grass&ground,electric&ice&rock,3,https://gamepress.gg/pokemongo/pokemon/164
Mud Shot + Octazooka and Water Pulse or Aurora Beam,0,224,2019-12-20,0,Octillery,water,,fire&ice&steel&water,electric&grass,0,https://gamepress.gg/pokemongo/pokemon/224
,-1,32,2019-07-22,-1,Nidoran♂,poison,,bug&fairy&fighting&grass&poison,ground&psychic,-1,https://gamepress.gg/pokemongo/pokemon/32
,-1,322,2020-01-13,-1,Numel,fire,ground,bug&electric&fairy&fire&poison&steel,ground&water,-1,https://gamepress.gg/pokemongo/pokemon/322
Fury Cutter + Earth Power Or Earthquake and Megahorn,2,34,2020-05-04,0,Nidoking,ground,poison,bug&electric&fairy&fighting&poison&rock,ground&ice&psychic&water,1,https://gamepress.gg/pokemongo/pokemon/34
Fury Cutter + Aerial Ace and Shadow Ball or Bug Buzz,2,291,2019-07-01,0,Ninjask,bug,flying,bug&fighting&grass&ground,electric&fire&flying&ice&rock,0,https://gamepress.gg/pokemongo/pokemon/291
,-1,290,2020-01-13,-1,Nincada,bug,ground,electric&fighting&ground&poison,fire&flying&ice&water,-1,https://gamepress.gg/pokemongo/pokemon/290
,-1,29,2019-07-22,-1,Nidoran♀,poison,,bug&fairy&fighting&grass&poison,ground&psychic,-1,https://gamepress.gg/pokemongo/pokemon/29
,-1,30,2019-07-22,-1,Nidorina,poison,,bug&fairy&fighting&grass&poison,ground&psychic,-1,https://gamepress.gg/pokemongo/pokemon/30
,-1,258,2020-05-01,-1,Mudkip,water,,fire&ice&steel&water,electric&grass,-1,https://gamepress.gg/pokemongo/pokemon/258
,-1,518,2019-09-17,-1,Musharna,psychic,,fighting&psychic,bug&dark&ghost,-1,https://gamepress.gg/pokemongo/pokemon/518
,-1,198,2019-05-07,-1,Murkrow,dark,flying,dark&ghost&grass&ground&psychic,electric&fairy&ice&rock,-1,https://gamepress.gg/pokemongo/pokemon/198
Poison Jab + Earth Power and Stone Edge or Earthquake,2.5,31,2020-05-04,0,Nidoqueen,ground,poison,bug&electric&fairy&fighting&poison&rock,ground&ice&psychic&water,2,https://gamepress.gg/pokemongo/pokemon/31
,-1,177,2019-05-07,-1,Natu,flying,psychic,fighting&grass&ground&psychic,dark&electric&ghost&ice&rock,-1,https://gamepress.gg/pokemongo/pokemon/177
,-1,429,2019-07-22,-1,Mismagius,ghost,,bug&fighting&normal&poison,dark&ghost,-1,https://gamepress.gg/pokemongo/pokemon/429
Wing Attack or Fire Spin + Sky Attack and Overheat,0,146,2020-04-02,2.5,Moltres,fire,flying,bug&fairy&fighting&fire&grass&ground&steel,electric&rock&water,2,https://gamepress.gg/pokemongo/pokemon/146
Spark + Discharge and Thunderbolt,2.5,312,2020-01-23,0,Minun,electric,,electric&flying&steel,ground,0,https://gamepress.gg/pokemongo/pokemon/312
,-1,517,2019-09-17,-1,Munna,psychic,,fighting&psychic,bug&dark&ghost,-1,https://gamepress.gg/pokemongo/pokemon/517
,-1,572,2019-09-15,-1,Minccino,normal,,ghost,fighting,-1,https://gamepress.gg/pokemongo/pokemon/572
Dragon Tail + Surf and Blizzard or Hyper Beam&Waterfall + Surf and Blizzard or Hyper Beam,1.5,350,2019-07-17,3,Milotic,water,,fire&ice&steel&water,electric&grass,2,https://gamepress.gg/pokemongo/pokemon/350
Lick + Body Slam and Bulldoze,3.5,446,2020-01-02,0,Munchlax,normal,,ghost,fighting,1,https://gamepress.gg/pokemongo/pokemon/446
,-1,414,2020-01-13,-1,Mothim,bug,flying,bug&fighting&grass&ground,electric&fire&flying&ice&rock,-1,https://gamepress.gg/pokemongo/pokemon/414
,-1,391,2020-06-04,-1,Monferno,fighting,fire,bug&dark&fire&grass&ice&steel,flying&ground&psychic&water,-1,https://gamepress.gg/pokemongo/pokemon/391
Confusion+Shadow Ball and Psychic,1,122,2019-09-28,0,Mr. Mime,fairy,psychic,dragon&fighting&psychic,ghost&poison&steel,0,https://gamepress.gg/pokemongo/pokemon/122
,-1,200,2020-05-08,-1,Misdreavus,ghost,,bug&fighting&normal&poison,dark&ghost,-1,https://gamepress.gg/pokemongo/pokemon/200
Shadow Claw + Psyshock and Wild Charge&Shadow Claw + Dragon Claw and Focus Blast,4,151,2020-01-28,4,Mew,psychic,,fighting&psychic,bug&dark&ghost,4,https://gamepress.gg/pokemongo/pokemon/151
Bullet Punch + Meteor Mash* and Earthquake&Bullet Punch+Meteor Mash* and Psychic,1,376,2020-05-01,4,Metagross,psychic,steel,dragon&fairy&flying&grass&ice&normal&poison&psychic&rock&steel,dark&fire&ghost&ground,2,https://gamepress.gg/pokemongo/pokemon/376
,-1,439,2019-09-26,-1,Mime Jr.,fairy,psychic,dragon&fighting&psychic,ghost&poison&steel,-1,https://gamepress.gg/pokemongo/pokemon/439
,-1,620,2019-09-15,-1,Mienshao,fighting,,bug&dark&rock,fairy&flying&psychic,-1,https://gamepress.gg/pokemongo/pokemon/620
,-1,262,2020-03-07,-1,Mightyena,dark,,dark&ghost&psychic,bug&fairy&fighting,-1,https://gamepress.gg/pokemongo/pokemon/262
,-1,241,2020-02-14,-1,Miltank,normal,,ghost,fighting,-1,https://gamepress.gg/pokemongo/pokemon/241
,-1,619,2019-09-15,-1,Mienfoo,fighting,,bug&dark&rock,fairy&flying&psychic,-1,https://gamepress.gg/pokemongo/pokemon/619
Vine Whip + Frenzy Plant and Earthquake,4.5,154,2020-04-29,1.5,Meganium,grass,,electric&grass&ground&water,bug&fire&flying&ice&poison,4,https://gamepress.gg/pokemongo/pokemon/154
Counter + Dynamic Punch and Ice Punch Or Psychic,4.5,308,2020-05-15,0,Medicham,fighting,psychic,fighting&rock,fairy&flying&ghost,0,https://gamepress.gg/pokemongo/pokemon/308
,-1,11,2020-01-13,-1,Metapod,bug,,fighting&grass&ground,fire&flying&rock,-1,https://gamepress.gg/pokemongo/pokemon/11
Confusion + Future Sight and Swift&Confusion + Future Sight and Blizzard,1,481,2019-07-01,2,Mesprit,psychic,,fighting&psychic,bug&dark&ghost,2,https://gamepress.gg/pokemongo/pokemon/481
Mud Shot + Surf and Mud Bomb&Mud Shot + Surf and Sludge,3,259,2020-05-01,0,Marshtomp,ground,water,electric&fire&poison&rock&steel,grass,0,https://gamepress.gg/pokemongo/pokemon/259
,-1,375,2020-05-01,-1,Metang,psychic,steel,dragon&fairy&flying&grass&ice&normal&poison&psychic&rock&steel,dark&fire&ghost&ground,-1,https://gamepress.gg/pokemongo/pokemon/375
,-1,648,2019-09-16,-1,Meloetta (Aria Forme),normal,psychic,ghost&psychic,bug&dark,-1,https://gamepress.gg/pokemongo/pokemon/648
,-1,556,2019-09-15,-1,Maractus,grass,,electric&grass&ground&water,bug&fire&flying&ice&poison,-1,https://gamepress.gg/pokemongo/pokemon/556
,-1,808,0,-1,Meltan,steel,,bug&dragon&fairy&flying&grass&ice&normal&poison&psychic&rock&steel,fighting&fire&ground,-1,https://gamepress.gg/pokemongo/pokemon/808
,-1,307,2020-03-27,-1,Meditite,fighting,psychic,fighting&rock,fairy&flying&ghost,-1,https://gamepress.gg/pokemongo/pokemon/307
Fire Fang or Ice Fang or Bite + Power-Up Punch and Play Rough or Iron Head,3.5,303,2020-05-30,0,Mawile,fairy,steel,bug&dark&dragon&fairy&flying&grass&ice&normal&poison&psychic&rock,fire&ground,0,https://gamepress.gg/pokemongo/pokemon/303
,-1,310,2019-09-03,-1,Manectric,electric,,electric&flying&steel,ground,-1,https://gamepress.gg/pokemongo/pokemon/310
Air Slash or Infestation + Bubble Beam and Silver Wind or Air Cutter,1,284,2020-04-02,0,Masquerain,bug,flying,bug&fighting&grass&ground,electric&fire&flying&ice&rock,0,https://gamepress.gg/pokemongo/pokemon/284
,-1,183,2019-05-07,-1,Marill,fairy,water,bug&dark&dragon&fighting&fire&ice&water,electric&grass&poison,-1,https://gamepress.gg/pokemongo/pokemon/183
,-1,179,2020-05-08,-1,Mareep,electric,,electric&flying&steel,ground,-1,https://gamepress.gg/pokemongo/pokemon/179
Powder Snow + Avalanche and Bulldoze,1.5,473,2020-04-29,3.5,Mamoswine,ground,ice,electric&poison,fighting&fire&grass&steel&water,2.5,https://gamepress.gg/pokemongo/pokemon/473
,-1,458,2020-01-13,-1,Mantyke,flying,water,bug&fighting&fire&ground&steel&water,electric&rock,-1,https://gamepress.gg/pokemongo/pokemon/458
,-1,56,2019-11-04,-1,Mankey,fighting,,bug&dark&rock,fairy&flying&psychic,-1,https://gamepress.gg/pokemongo/pokemon/56
Bubble + Aerial Ace and Ice Beam&Wing Attack + Aerial Ace and Ice Beam or Water Pulse&Wing Attack OR Bubble + Bubble Beam and Ice Beam,3.5,226,2020-04-09,0,Mantine,flying,water,bug&fighting&fire&ground&steel&water,electric&rock,2,https://gamepress.gg/pokemongo/pokemon/226
,-1,490,2020-01-13,-1,Manaphy,water,,fire&ice&steel&water,electric&grass,-1,https://gamepress.gg/pokemongo/pokemon/490
,-1,630,2019-09-15,-1,Mandibuzz,dark,flying,dark&ghost&grass&ground&psychic,electric&fairy&ice&rock,-1,https://gamepress.gg/pokemongo/pokemon/630
Spark + Wild Charge and Mirror Shot or Flash Cannon,3,462,2020-06-04,3.5,Magnezone,electric,steel,bug&dragon&electric&fairy&flying&grass&ice&normal&poison&psychic&rock&steel,fighting&fire&ground,2,https://gamepress.gg/pokemongo/pokemon/462
,-1,296,2020-03-11,-1,Makuhita,fighting,,bug&dark&rock,fairy&flying&psychic,-1,https://gamepress.gg/pokemongo/pokemon/296
Thunder Shock + Discharge and Magnet Bomb,3,82,2020-05-01,0,Magneton,electric,steel,bug&dragon&electric&fairy&flying&grass&ice&normal&poison&psychic&rock&steel,fighting&fire&ground,2,https://gamepress.gg/pokemongo/pokemon/82
,-1,126,2020-05-04,-1,Magmar,fire,,bug&fairy&fire&grass&ice&steel,ground&rock&water,-1,https://gamepress.gg/pokemongo/pokemon/126
,-1,81,2020-05-01,-1,Magnemite,electric,steel,bug&dragon&electric&fairy&flying&grass&ice&normal&poison&psychic&rock&steel,fighting&fire&ground,-1,https://gamepress.gg/pokemongo/pokemon/81
,-1,467,2020-05-01,-1,Magmortar,fire,,bug&fairy&fire&grass&ice&steel,ground&rock&water,-1,https://gamepress.gg/pokemongo/pokemon/467
,-1,67,2020-04-28,-1,Machoke,fighting,,bug&dark&rock,fairy&flying&psychic,-1,https://gamepress.gg/pokemongo/pokemon/67
Counter + Cross Chop or Close Combat and Rock Slide,2.5,68,2020-04-28,4,Machamp,fighting,,bug&dark&rock,fairy&flying&psychic,3.5,https://gamepress.gg/pokemongo/pokemon/68
,-1,404,2020-01-13,-1,Luxio,electric,,electric&flying&steel,ground,-1,https://gamepress.gg/pokemongo/pokemon/404
,-1,405,2019-10-11,-1,Luxray,electric,,electric&flying&steel,ground,-1,https://gamepress.gg/pokemongo/pokemon/405
Dragon Tail or Extrasensory + Sky Attack and Hydro Pump,3,249,2020-01-28,4,Lugia,flying,psychic,fighting&grass&ground&psychic,dark&electric&ghost&ice&rock,3,https://gamepress.gg/pokemongo/pokemon/249
Rock Throw + Stone Edge + Overheat,2,219,2019-07-01,0,Magcargo,fire,rock,bug&fairy&fire&flying&ice&normal&poison,fighting&ground&rock&water,0,https://gamepress.gg/pokemongo/pokemon/219
,-1,240,2020-04-29,-1,Magby,fire,,bug&fairy&fire&grass&ice&steel,ground&rock&water,-1,https://gamepress.gg/pokemongo/pokemon/240
Counter + Close Combat and Shadow Ball,2.5,448,2020-04-19,3.5,Lucario,fighting,steel,bug&dark&dragon&grass&ice&normal&poison&rock&steel,fighting&fire&ground,3,https://gamepress.gg/pokemongo/pokemon/448
,-1,294,2020-04-24,-1,Loudred,normal,,ghost,fighting,-1,https://gamepress.gg/pokemongo/pokemon/294
,-1,66,2020-04-28,-1,Machop,fighting,,bug&dark&rock,fairy&flying&psychic,-1,https://gamepress.gg/pokemongo/pokemon/66
,-1,129,2020-05-04,-1,Magikarp,water,,fire&ice&steel&water,electric&grass,-1,https://gamepress.gg/pokemongo/pokemon/129
,-1,370,2020-02-14,-1,Luvdisc,water,,fire&ice&steel&water,electric&grass,-1,https://gamepress.gg/pokemongo/pokemon/370
Water Gun or Waterfall + Silver Wind and Blizzard or Water Pulse,1.5,457,2020-05-25,,Lumineon,water,,fire&ice&steel&water,electric&grass,0,https://gamepress.gg/pokemongo/pokemon/457
,-1,337,2019-09-28,-1,Lunatone,psychic,rock,fire&flying&normal&poison&psychic,bug&dark&ghost&grass&ground&steel&water,-1,https://gamepress.gg/pokemongo/pokemon/337
,-1,549,2019-09-17,-1,Lilligant,grass,,electric&grass&ground&water,bug&fire&flying&ice&poison,-1,https://gamepress.gg/pokemongo/pokemon/549
Razor Leaf + Ice Beam and Hydro Pump&Bubble + Ice Beam and Energy Ball,2.5,272,2020-04-02,1,Ludicolo,grass,water,ground&steel&water,bug&flying&poison,1.5,https://gamepress.gg/pokemongo/pokemon/272
,-1,607,2019-09-16,-1,Litwick,fire,ghost,bug&fairy&fighting&fire&grass&ice&normal&poison&steel,dark&ghost&ground&rock&water,-1,https://gamepress.gg/pokemongo/pokemon/607
,-1,271,2020-01-13,-1,Lombre,grass,water,ground&steel&water,bug&flying&poison,-1,https://gamepress.gg/pokemongo/pokemon/271
,-1,270,2020-01-13,-1,Lotad,grass,water,ground&steel&water,bug&flying&poison,-1,https://gamepress.gg/pokemongo/pokemon/270
Lick + Body Slam* and Shadow Ball or Earthquake,2.5,463,2020-04-29,1,Lickilicky,normal,,ghost,fighting,4.5,https://gamepress.gg/pokemongo/pokemon/463
Low Kick+Fire Punch and Focused Blast,1,428,2019-07-01,0,Lopunny,normal,,ghost,fighting,0,https://gamepress.gg/pokemongo/pokemon/428
Razor Leaf or Quick Attack + Leaf Blade and Last Resort,2,470,2020-04-29,2.5,Leafeon,grass,,electric&grass&ground&water,bug&fire&flying&ice&poison,2,https://gamepress.gg/pokemongo/pokemon/470
,-1,506,2020-02-25,-1,Lillipup,normal,,ghost,fighting,-1,https://gamepress.gg/pokemongo/pokemon/506
,-1,510,2019-09-29,-1,Liepard,dark,,dark&ghost&psychic,bug&fairy&fighting,-1,https://gamepress.gg/pokemongo/pokemon/510
,-1,345,2020-04-24,-1,Lileep,grass,rock,electric&normal,bug&fighting&ice&steel,-1,https://gamepress.gg/pokemongo/pokemon/345
,-1,246,2020-05-30,-1,Larvitar,ground,rock,electric&fire&flying&normal&poison&rock,fighting&grass&ground&ice&steel&water,-1,https://gamepress.gg/pokemongo/pokemon/246
,-1,542,2019-09-17,-1,Leavanny,bug,grass,electric&fighting&grass&ground&water,bug&fire&flying&ice&poison&rock,-1,https://gamepress.gg/pokemongo/pokemon/542
Lick + Body Slam* or Stomp and Power Whip or Hyper Beam,2,108,2020-05-26,0,Lickitung,normal,,ghost,fighting,0,https://gamepress.gg/pokemongo/pokemon/108
Water Gun or Ice Shard* + Surf and Ice Beam*&Ice Shard* + Surf and Skull Bash,4,131,2020-05-01,2,Lapras,ice,water,ice&water,electric&fighting&grass&rock,4,https://gamepress.gg/pokemongo/pokemon/131
,-1,166,2020-01-13,-1,Ledian,bug,flying,bug&fighting&grass&ground,electric&fire&flying&ice&rock,-1,https://gamepress.gg/pokemongo/pokemon/166
Mud Shot + Rock Slide and Earth Power or Outrage,N,645,2020-04-09,3.5,Landorus (Incarnate Forme),flying,ground,bug&electric&fighting&ground&poison,ice&water,2.5,https://gamepress.gg/pokemongo/pokemon/645
Water Gun + Thunderbolt and Hydro Pump,4,171,2020-01-23,0,Lanturn,electric,water,fire&flying&ice&steel&water,grass&ground,1,https://gamepress.gg/pokemongo/pokemon/171
,-1,165,2019-05-07,-1,Ledyba,bug,flying,bug&fighting&grass&ground,electric&fire&flying&ice&rock,-1,https://gamepress.gg/pokemongo/pokemon/165
Dragon Breath + Outrage and Thunder or Psychic&Charm + Outrage and Psychic,1.5,380,2019-09-28,2,Latias,dragon,psychic,electric&fighting&fire&grass&psychic&water,bug&dark&dragon&fairy&ghost&ice,1.5,https://gamepress.gg/pokemongo/pokemon/380
Waterfall + Surf and Thunder,N,382,2020-01-28,4.5,Kyogre,water,,fire&ice&steel&water,electric&grass,1,https://gamepress.gg/pokemongo/pokemon/382
,-1,401,2020-01-13,-1,Kricketot,bug,,fighting&grass&ground,fire&flying&rock,-1,https://gamepress.gg/pokemongo/pokemon/401
,-1,636,2019-09-16,-1,Larvesta,bug,fire,bug&fairy&fighting&grass&ice&steel,flying&rock&water,-1,https://gamepress.gg/pokemongo/pokemon/636
Thunder Shock + Mirror Shot and Zap Cannon or Flash Cannon,2,601,2020-03-28,1,Klinklang,steel,,bug&dragon&fairy&flying&grass&ice&normal&poison&psychic&rock&steel,fighting&fire&ground,1.5,https://gamepress.gg/pokemongo/pokemon/601
,-1,608,2019-09-15,-1,Lampent,fire,ghost,bug&fairy&fighting&fire&grass&ice&normal&poison&steel,dark&ghost&ground&rock&water,-1,https://gamepress.gg/pokemongo/pokemon/608
,-1,402,2020-01-13,-1,Kricketune,bug,,fighting&grass&ground,fire&flying&rock,-1,https://gamepress.gg/pokemongo/pokemon/402
,-1,553,2019-09-17,-1,Krookodile,dark,ground,dark&electric&ghost&poison&psychic&rock,bug&fairy&fighting&grass&ice&water,-1,https://gamepress.gg/pokemongo/pokemon/553
Metal Claw + Rock Slide and Body Slam,2,305,2020-01-28,0,Lairon,rock,steel,bug&dragon&fairy&flying&ice&normal&poison&psychic&rock,fighting&ground&water,0,https://gamepress.gg/pokemongo/pokemon/305
,-1,552,2019-09-17,-1,Krokorok,dark,ground,dark&electric&ghost&poison&psychic&rock,bug&fairy&fighting&grass&ice&water,-1,https://gamepress.gg/pokemongo/pokemon/552
,-1,98,2019-05-07,-1,Krabby,water,,fire&ice&steel&water,electric&grass,-1,https://gamepress.gg/pokemongo/pokemon/98
Dragon Breath + Outrage and Octazooka&Water Gun* or Waterfall + Outrage and Octazooka,3,230,2020-04-29,0,Kingdra,dragon,water,fire&steel&water,dragon&fairy,3.5,https://gamepress.gg/pokemongo/pokemon/230
,-1,109,2020-05-04,-1,Koffing,poison,,bug&fairy&fighting&grass&poison,ground&psychic,-1,https://gamepress.gg/pokemongo/pokemon/109
Mud Slap + Power-Up Punch and Outrage,1.5,115,2020-04-29,1,Kangaskhan,normal,,ghost,fighting,3,https://gamepress.gg/pokemongo/pokemon/115
,-1,599,2020-05-30,-1,Klink,steel,,bug&dragon&fairy&flying&grass&ice&normal&poison&psychic&rock&steel,fighting&fire&ground,-1,https://gamepress.gg/pokemongo/pokemon/599
,-1,600,2020-03-28,-1,Klang,steel,,bug&dragon&fairy&flying&grass&ice&normal&poison&psychic&rock&steel,fighting&fire&ground,-1,https://gamepress.gg/pokemongo/pokemon/600
Mud Shot* or Bubble + X-Scissor and Crabhammer,1,99,2020-04-28,0,Kingler,water,,fire&ice&steel&water,electric&grass,0,https://gamepress.gg/pokemongo/pokemon/99
,-1,281,2020-05-01,-1,Kirlia,fairy,psychic,dragon&fighting&psychic,ghost&poison&steel,-1,https://gamepress.gg/pokemongo/pokemon/281
,-1,647,2020-05-13,-1,Keldeo,fighting,water,bug&dark&fire&ice&rock&steel&water,electric&fairy&flying&grass&psychic,-1,https://gamepress.gg/pokemongo/pokemon/647
,-1,141,2020-05-30,-1,Kabutops,rock,water,fire&flying&ice&normal&poison,electric&fighting&grass&ground,-1,https://gamepress.gg/pokemongo/pokemon/141
,-1,588,2019-09-15,-1,Karrablast,bug,,fighting&grass&ground,fire&flying&rock,-1,https://gamepress.gg/pokemongo/pokemon/588
Bullet Seed + Aerial Ace and Energy Ball,4,189,2020-04-02,0,Jumpluff,flying,grass,fighting&grass&ground&water,fire&flying&ice&poison&rock,0,https://gamepress.gg/pokemongo/pokemon/189
,-1,352,2020-01-13,-1,Kecleon,normal,,ghost,fighting,-1,https://gamepress.gg/pokemongo/pokemon/352
Thunder Shock + Discharge and Thunder,1.5,135,2020-04-29,1.5,Jolteon,electric,,electric&flying&steel,ground,2.5,https://gamepress.gg/pokemongo/pokemon/135
,-1,14,2020-05-01,-1,Kakuna,bug,poison,bug&fairy&fighting&grass&poison,fire&flying&psychic&rock,-1,https://gamepress.gg/pokemongo/pokemon/14
,-1,64,2020-05-01,-1,Kadabra,psychic,,fighting&psychic,bug&dark&ghost,-1,https://gamepress.gg/pokemongo/pokemon/64
,-1,140,2020-01-13,-1,Kabuto,rock,water,fire&flying&ice&normal&poison,electric&fighting&grass&ground,-1,https://gamepress.gg/pokemongo/pokemon/140
Fire Spin + Blast Burn* and Close Combat,1.5,392,2020-06-04,1,Infernape,fighting,fire,bug&dark&fire&grass&ice&steel,flying&ground&psychic&water,1,https://gamepress.gg/pokemongo/pokemon/392
,-1,124,2020-05-04,-1,Jynx,ice,psychic,ice&psychic,bug&dark&fire&ghost&rock&steel,-1,https://gamepress.gg/pokemongo/pokemon/124
,-1,595,2020-04-21,-1,Joltik,bug,electric,electric&fighting&grass&steel,fire&rock,-1,https://gamepress.gg/pokemongo/pokemon/595
Confusion + Doom Desire + Psychic or Dazzling Gleam,4,385,2020-01-28,3,Jirachi,psychic,steel,dragon&fairy&flying&grass&ice&normal&poison&psychic&rock&steel,dark&fire&ghost&ground,3.5,https://gamepress.gg/pokemongo/pokemon/385
,-1,39,2020-04-28,-1,Jigglypuff,fairy,normal,bug&dark&dragon&ghost,poison&steel,-1,https://gamepress.gg/pokemongo/pokemon/39
,-1,593,2019-09-15,-1,Jellicent,ghost,water,bug&fighting&fire&ice&normal&poison&steel&water,dark&electric&ghost&grass,-1,https://gamepress.gg/pokemongo/pokemon/593
,-1,228,2020-05-01,-1,Houndour,dark,fire,dark&fire&ghost&grass&ice&psychic&steel,fighting&ground&rock&water,-1,https://gamepress.gg/pokemongo/pokemon/228
Snarl + Flamethrower and Crunch or Foul Play&Fire Fang + Flamethrower and Crunch,2,229,2020-05-01,0,Houndoom,dark,fire,dark&fire&ghost&grass&ice&psychic&steel,fighting&ground&rock&water,1.5,https://gamepress.gg/pokemongo/pokemon/229
Vine Whip or Razor Leaf + Power Whip and Sludge Bomb,3.5,2,2020-05-01,0,Ivysaur,grass,poison,electric&fairy&fighting&grass&water,fire&flying&ice&psychic,0,https://gamepress.gg/pokemongo/pokemon/2
,-1,187,2019-05-07,-1,Hoppip,flying,grass,fighting&grass&ground&water,fire&flying&ice&poison&rock,-1,https://gamepress.gg/pokemongo/pokemon/187
,-1,314,2020-01-13,-1,Illumise,bug,,fighting&grass&ground,fire&flying&rock,-1,https://gamepress.gg/pokemongo/pokemon/314
"Confusion + Shadow Ball and Focus Blast&+ 2x (Fire, Ice, Thunder) Punch or Shadow Ball or Focus Blast",4.5,97,2020-05-01,0,Hypno,psychic,,fighting&psychic,bug&dark&ghost,1,https://gamepress.gg/pokemongo/pokemon/97
,-1,174,2020-04-29,-1,Igglybuff,fairy,normal,bug&dark&dragon&ghost,poison&steel,-1,https://gamepress.gg/pokemongo/pokemon/174
Snarl + Sky Attack and Dark Pulse,2,430,2020-01-28,1,Honchkrow,dark,flying,dark&ghost&grass&ground&psychic,electric&fairy&ice&rock,3,https://gamepress.gg/pokemongo/pokemon/430
,-1,367,2020-01-13,-1,Huntail,water,,fire&ice&steel&water,electric&grass,-1,https://gamepress.gg/pokemongo/pokemon/367
Extrasensory + Brave Bird and Fire Blast&Extrasensory + Brave Bird and Solar Beam,1,250,2020-05-25,2,Ho-Oh,fire,flying,bug&fairy&fighting&fire&grass&ground&steel,electric&rock&water,2,https://gamepress.gg/pokemongo/pokemon/250
,-1,163,2019-05-07,-1,Hoothoot,flying,normal,bug&ghost&grass&ground,electric&ice&rock,-1,https://gamepress.gg/pokemongo/pokemon/163
,-1,116,2019-06-13,-1,Horsea,water,,fire&ice&steel&water,electric&grass,-1,https://gamepress.gg/pokemongo/pokemon/116
Counter + Power-Up Punch and Ice/Fire/Thunder Punch&Counter + Ice/Fire/Thunder Punch,2.5,107,2020-05-01,0,Hitmonchan,fighting,,bug&dark&rock,fairy&flying&psychic,2.5,https://gamepress.gg/pokemongo/pokemon/107
Fire Fang or Bite + Body Slam and Earth Power,2,450,2020-05-25,1,Hippowdon,ground,,electric&poison&rock,grass&ice&water,1.5,https://gamepress.gg/pokemongo/pokemon/450
Counter + Close Combat and Megahorn or Earthquake,2,214,2020-05-20,3,Heracross,bug,fighting,bug&dark&fighting&grass&ground,fairy&fire&flying&psychic,3,https://gamepress.gg/pokemongo/pokemon/214
Fire Spin + Flamethrower and Stone Edge or Iron Head,0,485,2020-01-28,4,Heatran,fire,steel,bug&dragon&fairy&flying&grass&ice&normal&poison&psychic&steel,fighting&ground&water,2,https://gamepress.gg/pokemongo/pokemon/485
Rocksmash+Brick Break and Stone Edge,1,106,2020-05-01,1,Hitmonlee,fighting,,bug&dark&rock,fairy&flying&psychic,1,https://gamepress.gg/pokemongo/pokemon/106
,-1,449,2020-05-30,-1,Hippopotas,ground,,electric&poison&rock,grass&ice&water,-1,https://gamepress.gg/pokemongo/pokemon/449
,-1,507,2020-04-21,-1,Herdier,normal,,ghost,fighting,-1,https://gamepress.gg/pokemongo/pokemon/507
,-1,612,2020-01-12,-1,Haxorus,dragon,,electric&fire&grass&water,dragon&fairy&ice,-1,https://gamepress.gg/pokemongo/pokemon/612
Counter + Close Combat and Heavy Slam or Superpower,2,297,2019-12-21,3.5,Hariyama,fighting,,bug&dark&rock,fairy&flying&psychic,3,https://gamepress.gg/pokemongo/pokemon/297
Dragon Breath + Crunch and Outrage or Hydro Pump,1.5,130,2020-04-29,3.5,Gyarados,flying,water,bug&fighting&fire&ground&steel&water,electric&rock,4,https://gamepress.gg/pokemongo/pokemon/130
,-1,533,2019-09-17,-1,Gurdurr,fighting,,bug&dark&rock,fairy&flying&psychic,-1,https://gamepress.gg/pokemongo/pokemon/533
,-1,316,2019-05-07,-1,Gulpin,poison,,bug&fairy&fighting&grass&poison,ground&psychic,-1,https://gamepress.gg/pokemongo/pokemon/316
Counter + Stone Edge and Close Combat,3,237,2020-05-08,0,Hitmontop,fighting,,bug&dark&rock,fairy&flying&psychic,1.5,https://gamepress.gg/pokemongo/pokemon/237
Mud Shot + Fire Punch and Earthquake or Solar Beam,0,383,2020-05-20,5,Groudon,ground,,electric&poison&rock,grass&ice&water,2,https://gamepress.gg/pokemongo/pokemon/383
,-1,58,2020-05-01,-1,Growlithe,fire,,bug&fairy&fire&grass&ice&steel,ground&rock&water,-1,https://gamepress.gg/pokemongo/pokemon/58
Charm + Crunch and Close Combat&Snarl + Crunch or Play Rough and Close Combat,2,210,2020-05-08,2,Granbull,fairy,,bug&dark&dragon&fighting,poison&steel,3,https://gamepress.gg/pokemongo/pokemon/210
Confusion + Rock Slide and Psychic,2,576,2020-03-27,0,Gothitelle,psychic,,fighting&psychic,bug&dark&ghost,2,https://gamepress.gg/pokemongo/pokemon/576
Fire Spin or Lick + Power-Up Punch and Flamethrower or Thunder Punch,1.5,631,2019-10-10,0,Heatmor,fire,,bug&fairy&fire&grass&ice&steel,ground&rock&water,2.5,https://gamepress.gg/pokemongo/pokemon/631
,-1,440,2020-01-13,-1,Happiny,normal,,ghost,fighting,-1,https://gamepress.gg/pokemongo/pokemon/440
Shadow Claw + Shadow Punch and Shadow Ball or Sludge Bomb,4,93,2020-04-28,0,Haunter,ghost,poison,bug&fairy&fighting&grass&normal&poison,dark&ghost&ground&psychic,0,https://gamepress.gg/pokemongo/pokemon/93
,-1,326,2019-11-26,-1,Grumpig,psychic,,fighting&psychic,bug&dark&ghost,-1,https://gamepress.gg/pokemongo/pokemon/326
Mud Slap + Shadow Punch and Earth Power or Dynamic Punch,1,623,2019-10-15,2,Golurk,ghost,ground,bug&electric&fighting&normal&poison&rock,dark&ghost&grass&ice&water,3,https://gamepress.gg/pokemongo/pokemon/623
Confusion + Psychic and Future Sight,1.5,575,2020-03-27,0,Gothorita,psychic,,fighting&psychic,bug&dark&ghost,0,https://gamepress.gg/pokemongo/pokemon/575
,-1,253,2020-01-13,-1,Grovyle,grass,,electric&grass&ground&water,bug&fire&flying&ice&poison,-1,https://gamepress.gg/pokemongo/pokemon/253
Razor Leaf + Sludge Bomb and Petal Blizzard or Moonblast,2,44,2020-05-01,0,Gloom,grass,poison,electric&fairy&fighting&grass&water,fire&flying&ice&psychic,0,https://gamepress.gg/pokemongo/pokemon/44
Razor Leaf + Body Slam,2.5,388,2020-05-01,0,Grotle,grass,,electric&grass&ground&water,bug&fire&flying&ice&poison,1,https://gamepress.gg/pokemongo/pokemon/388
,-1,574,2019-09-15,-1,Gothita,psychic,,fighting&psychic,bug&dark&ghost,-1,https://gamepress.gg/pokemongo/pokemon/574
Fury Cutter or Wing Attack + Dig and Night Slash or Aerial Ace,1.5,207,2020-05-30,0,Gligar,flying,ground,bug&electric&fighting&ground&poison,ice&water,0,https://gamepress.gg/pokemongo/pokemon/207
,-1,431,2020-01-13,-1,Glameow,normal,,ghost,fighting,-1,https://gamepress.gg/pokemongo/pokemon/431
,-1,622,2019-09-16,-1,Golett,ghost,ground,bug&electric&fighting&normal&poison&rock,dark&ghost&grass&ice&water,-1,https://gamepress.gg/pokemongo/pokemon/622
,-1,368,2019-09-28,-1,Gorebyss,water,,fire&ice&steel&water,electric&grass,-1,https://gamepress.gg/pokemongo/pokemon/368
Ice Shard + Icy Wind and Avalanche or Last Resort*,0,471,2020-05-10,2,Glaceon,ice,,ice,fighting&fire&rock&steel,2.5,https://gamepress.gg/pokemongo/pokemon/471
Water Gun or Confusion + Cross Chop or Bubble Beam and Ice Beam or Psychic or Synchronoise,1.5,55,2020-05-01,0,Golduck,water,,fire&ice&steel&water,electric&grass,1,https://gamepress.gg/pokemongo/pokemon/55
,-1,118,2019-05-07,-1,Goldeen,water,,fire&ice&steel&water,electric&grass,-1,https://gamepress.gg/pokemongo/pokemon/118
Smack Down or Mud Slap + Rock Slide and Superpower,1.5,526,2020-03-27,1,Gigalith,rock,,fire&flying&normal&poison,fighting&grass&ground&steel&water,1.5,https://gamepress.gg/pokemongo/pokemon/526
Wing Attack + Shadow Ball and Poison Fang or Ominous Wind*,2.5,42,2020-04-28,0,Golbat,flying,poison,bug&fairy&fighting&grass&ground&poison,electric&ice&psychic&rock,1,https://gamepress.gg/pokemongo/pokemon/42
Fury Cutter + X-Scissor and Magnet Bomb,1.5,649,2020-03-21,1.5,Genesect,bug,steel,bug&dragon&fairy&grass&ice&normal&poison&psychic&steel,fire,2.5,https://gamepress.gg/pokemongo/pokemon/649
Hidden Power or Mud Slap + Body Slam and Earth Power,2,423,2019-07-11,0,Gastrodon,ground,water,electric&fire&poison&rock&steel,grass,1,https://gamepress.gg/pokemongo/pokemon/423
Fury Cutter or Wing Attack + Earthquake and Night Slash or Aerial Ace or Sand Tomb,2,472,2019-12-12,2,Gliscor,flying,ground,bug&electric&fighting&ground&poison,ice&water,3,https://gamepress.gg/pokemongo/pokemon/472
Mud Shot + Earthquake and Outrage,1.5,445,2020-01-28,4.5,Garchomp,dragon,ground,electric&fire&poison&rock,dragon&fairy&ice,3.5,https://gamepress.gg/pokemongo/pokemon/445
Charm + Shadow Ball and Synchronoise&Charm + Shadow Ball and Return,2.5,282,2020-04-29,2.5,Gardevoir,fairy,psychic,dragon&fighting&psychic,ghost&poison&steel,2,https://gamepress.gg/pokemongo/pokemon/282
Ice Shard + Avalanche and Shadow Ball,2.5,362,2020-04-09,0,Glalie,ice,,ice,fighting&fire&rock&steel,2,https://gamepress.gg/pokemongo/pokemon/362
Shadow Claw or Dragon Breath + Dragon Claw and Shadow Sneak,N,487-altered,2020-05-08,4.5,Giratina (Altered Forme),dragon,ghost,bug&electric&fighting&fire&grass&normal&poison&water,dark&dragon&fairy&ghost&ice,5,https://gamepress.gg/pokemongo/pokemon/487-altered
Confusion + Thunderbolt and Psychic,1.5,203,2020-03-27,0,Girafarig,normal,psychic,ghost&psychic,bug&dark,0,https://gamepress.gg/pokemongo/pokemon/203
,-1,94,2020-04-28,-1,Gengar,ghost,poison,bug&fairy&fighting&grass&normal&poison,dark&ghost&ground&psychic,-1,https://gamepress.gg/pokemongo/pokemon/94
,-1,443,2020-01-01,-1,Gible,dragon,ground,electric&fire&poison&rock,dragon&fairy&ice,-1,https://gamepress.gg/pokemongo/pokemon/443
Infestation + Sludge Bomb and Shadow Ball OR Thunderbolt,2,110,2019-07-22,0,Weezing,poison,,bug&fairy&fighting&grass&poison,ground&psychic,2,https://gamepress.gg/pokemongo/pokemon/110
Thunder Shock or Mud Shot + Discharge and Mud Bomb,4,618,2020-03-31,0,Stunfisk,electric,ground,electric&flying&poison&rock&steel,grass&ground&ice&water,1,https://gamepress.gg/pokemongo/pokemon/618
,-1,92,2020-04-28,-1,Gastly,ghost,poison,bug&fairy&fighting&grass&normal&poison,dark&ghost&ground&psychic,-1,https://gamepress.gg/pokemongo/pokemon/92
Infestation + Body Slam and Gunk Shot or Seed Bomb,1.5,569,2020-04-08,0,Garbodor,poison,,bug&fairy&fighting&grass&poison,ground&psychic,1,https://gamepress.gg/pokemongo/pokemon/569
Powder Snow + Avalanche and Shadow Ball,3,478,2020-01-02,0,Froslass,ghost,ice,bug&fighting&ice&normal&poison,dark&fire&ghost&rock&steel,2,https://gamepress.gg/pokemongo/pokemon/478
Confusion + Leaf Blade and Close Combat&Charm + Leaf Blade and Close Combat,3.5,475,2020-04-29,2.5,Gallade,fighting,psychic,fighting&rock,fairy&flying&ghost,3,https://gamepress.gg/pokemongo/pokemon/475
Volt Switch + Discharge and Bug Buzz or Cross Poison,3.5,596,2020-04-22,0,Galvantula,bug,electric,electric&fighting&grass&steel,fire&rock,1,https://gamepress.gg/pokemongo/pokemon/596
,-1,263,2019-05-07,-1,Zigzagoon,normal,,ghost,fighting,-1,https://gamepress.gg/pokemongo/pokemon/263
Mud Shot + Dragon Claw and Earthquake or Earth Power* or Stone Edge,2,330,2020-05-01,1,Flygon,dragon,ground,electric&fire&poison&rock,dragon&fairy&ice,3.5,https://gamepress.gg/pokemongo/pokemon/330
,-1,444,2020-01-01,-1,Gabite,dragon,ground,electric&fire&poison&rock,dragon&fairy&ice,-1,https://gamepress.gg/pokemongo/pokemon/444
Shadow Claw + Grass Knot and Thunder,3,264,2019-07-12,0,Linoone,normal,,ghost,fighting,0,https://gamepress.gg/pokemongo/pokemon/264
,0,136,2020-04-30,0,Flareon,fire,,bug&fairy&fire&grass&ice&steel,ground&rock&water,0,https://gamepress.gg/pokemongo/pokemon/136
Quick Attack + Brick Break and Hyper Beam,1.5,162,2019-09-08,0,Furret,normal,,ghost,fighting,0,https://gamepress.gg/pokemongo/pokemon/162
,-1,590,2020-02-25,-1,Foongus,grass,poison,electric&fairy&fighting&grass&water,fire&flying&ice&psychic,-1,https://gamepress.gg/pokemongo/pokemon/590
,-1,611,2019-09-15,-1,Fraxure,dragon,,electric&fire&grass&water,dragon&fairy&ice,-1,https://gamepress.gg/pokemongo/pokemon/611
,-1,592,2019-09-15,-1,Frillish,ghost,water,bug&fighting&fire&ice&normal&poison&steel&water,dark&electric&ghost&grass,-1,https://gamepress.gg/pokemongo/pokemon/592
Bullet Seed + Power Whip and Flash Cannon Thunder or Acid Spray,3.5,598,2020-04-25,0,Ferrothorn,grass,steel,dragon&electric&fairy&grass&normal&poison&psychic&rock&steel&water,fighting&fire,2.5,https://gamepress.gg/pokemongo/pokemon/598
,-1,597,2019-11-19,-1,Ferroseed,grass,steel,dragon&electric&fairy&grass&normal&poison&psychic&rock&steel&water,fighting&fire,-1,https://gamepress.gg/pokemongo/pokemon/597
Bug Bite + Earthquake and Mirror Shot or Sand Tomb or Heavy Slam,2.5,205,2019-12-16,0,Forretress,bug,steel,bug&dragon&fairy&grass&ice&normal&poison&psychic&steel,fire,2,https://gamepress.gg/pokemongo/pokemon/205
Waterfall + Hydro Cannon and Crunch or Ice Beam,2,160,2020-05-20,1,Feraligatr,water,,fire&ice&steel&water,electric&grass,3,https://gamepress.gg/pokemongo/pokemon/160
,-1,295,2020-01-13,-1,Exploud,normal,,ghost,fighting,-1,https://gamepress.gg/pokemongo/pokemon/295
,-1,419,2020-05-25,-1,Floatzel,water,,fire&ice&steel&water,electric&grass,-1,https://gamepress.gg/pokemongo/pokemon/419
Confusion + Seed Bomb and Ancient Power and Psychic,0,102,2020-05-15,0,Exeggcute,grass,psychic,electric&fighting&grass&ground&psychic&water,bug&dark&fire&flying&ghost&ice&poison,0,https://gamepress.gg/pokemongo/pokemon/102
,0,196,2020-05-08,0,Espeon,psychic,,fighting&psychic,bug&dark&ghost,0,https://gamepress.gg/pokemongo/pokemon/196
,-1,456,2020-01-13,-1,Finneon,water,,fire&ice&steel&water,electric&grass,-1,https://gamepress.gg/pokemongo/pokemon/456
Counter + Aerial Ace and Drill Run or Megahorn,3,589,2020-04-01,1,Escavalier,bug,steel,bug&dragon&fairy&grass&ice&normal&poison&psychic&steel,fire,3.5,https://gamepress.gg/pokemongo/pokemon/589
,-1,180,2020-05-01,-1,Flaaffy,electric,,electric&flying&steel,ground,-1,https://gamepress.gg/pokemongo/pokemon/180
Fire Spin + Iron Head and Flamethrower or Overheat,1.5,244,2020-05-01,1.5,Entei,fire,,bug&fairy&fire&grass&ice&steel,ground&rock&water,1.5,https://gamepress.gg/pokemongo/pokemon/244
Waterfall + Hydro Cannon and Flash Cannon,3,395,2020-04-29,1,Empoleon,steel,water,bug&dragon&fairy&flying&ice&normal&poison&psychic&rock&steel&water,electric&fighting&ground,2,https://gamepress.gg/pokemongo/pokemon/395
,-1,239,2020-04-29,-1,Elekid,electric,,electric&flying&steel,ground,-1,https://gamepress.gg/pokemongo/pokemon/239
,-1,349,2019-05-21,-1,Feebas,water,,fire&ice&steel&water,electric&grass,-1,https://gamepress.gg/pokemongo/pokemon/349
,-1,22,2020-04-28,-1,Fearow,flying,normal,bug&ghost&grass&ground,electric&ice&rock,-1,https://gamepress.gg/pokemongo/pokemon/22
Fury Cutter or Air Slash + Leaf Blade and Aerial Ace,1.5,83,2020-04-28,0,Farfetch'd,flying,normal,bug&ghost&grass&ground,electric&ice&rock,0,https://gamepress.gg/pokemongo/pokemon/83
Thunder Shock + Wild Charge and Thunder Punch or Ice Punch,1.5,466,2020-05-01,1,Electivire,electric,,electric&flying&steel,ground,1,https://gamepress.gg/pokemongo/pokemon/466
,-1,133,2020-04-29,-1,Eevee,normal,,ghost,fighting,-1,https://gamepress.gg/pokemongo/pokemon/133
,-1,587,2019-09-15,-1,Emolga,electric,flying,bug&fighting&flying&grass&ground&steel,ice&rock,-1,https://gamepress.gg/pokemongo/pokemon/587
,-1,605,2019-09-15,-1,Elgyem,psychic,,fighting&psychic,bug&dark&ghost,-1,https://gamepress.gg/pokemongo/pokemon/605
Volt Switch + Foul Play and Discharge or Thunderbolt,2,101,2020-04-28,0,Electrode,electric,,electric&flying&steel,ground,0,https://gamepress.gg/pokemongo/pokemon/101
,-1,309,2019-09-03,-1,Electrike,electric,,electric&flying&steel,ground,-1,https://gamepress.gg/pokemongo/pokemon/309
,-1,355,2020-05-01,-1,Duskull,ghost,,bug&fighting&normal&poison,dark&ghost,-1,https://gamepress.gg/pokemongo/pokemon/355
,-1,23,2020-04-28,-1,Ekans,poison,,bug&fairy&fighting&grass&poison,ground&psychic,-1,https://gamepress.gg/pokemongo/pokemon/23
,-1,125,2020-05-04,-1,Electabuzz,electric,,electric&flying&steel,ground,-1,https://gamepress.gg/pokemongo/pokemon/125
,-1,604,2019-09-15,-1,Eelektross,electric,,electric&flying&steel,ground,-1,https://gamepress.gg/pokemongo/pokemon/604
,-1,603,2019-09-15,-1,Eelektrik,electric,,electric&flying&steel,ground,-1,https://gamepress.gg/pokemongo/pokemon/603
,-1,557,2020-03-03,-1,Dwebble,bug,rock,normal&poison,rock&steel&water,-1,https://gamepress.gg/pokemongo/pokemon/557
Confusion + Sludge Bomb and Bug Buzz,2.5,269,2020-04-02,0,Dustox,bug,poison,bug&fairy&fighting&grass&poison,fire&flying&psychic&rock,0,https://gamepress.gg/pokemongo/pokemon/269
Hex+Ominous Wind and Psychic&Hex+Ominous Wind and Dark Pulse,0,477,2020-05-01,1,Dusknoir,ghost,,bug&fighting&normal&poison,dark&ghost,1,https://gamepress.gg/pokemongo/pokemon/477
Feint Attack or Hex + Shadow Punch and Ice Punch or Fire Punch,2.5,356,2020-05-01,0,Dusclops,ghost,,bug&fighting&normal&poison,dark&ghost,0,https://gamepress.gg/pokemongo/pokemon/356
,-1,529,2019-09-17,-1,Drilbur,ground,,electric&poison&rock,grass&ice&water,-1,https://gamepress.gg/pokemongo/pokemon/529
Bug Bite + X-Scissor and Stone Edge,1.5,632,2019-10-15,0,Durant,bug,steel,bug&dragon&fairy&grass&ice&normal&poison&psychic&steel,fire,1,https://gamepress.gg/pokemongo/pokemon/632
Hidden Power + Psyshock and Night Shade or Thunder,1,578,2019-09-15,0,Duosion,psychic,,fighting&psychic,bug&dark&ghost,0,https://gamepress.gg/pokemongo/pokemon/578
,-1,621,2019-09-15,-1,Druddigon,dragon,,electric&fire&grass&water,dragon&fairy&ice,-1,https://gamepress.gg/pokemongo/pokemon/621
Bite + Rock Slide and Drill Run,2,206,2020-05-08,0,Dunsparce,normal,,ghost,fighting,0,https://gamepress.gg/pokemongo/pokemon/206
Hex + Shadow Ball and Icy Wind,2.5,426,2020-04-02,1,Drifblim,flying,ghost,bug&fighting&grass&ground&normal&poison,dark&electric&ghost&ice&rock,3.5,https://gamepress.gg/pokemongo/pokemon/426
,-1,580,2019-09-15,-1,Ducklett,flying,water,bug&fighting&fire&ground&steel&water,electric&rock,-1,https://gamepress.gg/pokemongo/pokemon/580
,-1,147,2020-05-01,-1,Dratini,dragon,,electric&fire&grass&water,dragon&fairy&ice,-1,https://gamepress.gg/pokemongo/pokemon/147
Counter + Play Rough and Heavy Slam or Earthquake&Charm + Heavy Slam and Earthquake,2,232,2020-05-30,1.5,Donphan,ground,,electric&poison&rock,grass&ice&water,3,https://gamepress.gg/pokemongo/pokemon/232
Dragon Breath + Dragon Claw and Outrage or Draco Meteor&Dragon Breath + Dragon Claw and Hurricane,2,149,2020-05-04,4,Dragonite,dragon,flying,bug&fighting&fire&grass&ground&water,dragon&fairy&ice&rock,3.5,https://gamepress.gg/pokemongo/pokemon/149
Dragon Breath + Iron Head and Thunder or Draco Meteor,0,483,2019-09-22,5,Dialga,dragon,steel,bug&electric&flying&grass&normal&poison&psychic&rock&steel&water,fighting&ground,2.5,https://gamepress.gg/pokemongo/pokemon/483
,-1,96,2020-05-01,-1,Drowzee,psychic,,fighting&psychic,bug&dark&ghost,-1,https://gamepress.gg/pokemongo/pokemon/96
,-1,425,2020-05-25,-1,Drifloon,flying,ghost,bug&fighting&grass&ground&normal&poison,dark&electric&ghost&ice&rock,-1,https://gamepress.gg/pokemongo/pokemon/425
Ice Shard* + Icy Wind* and Water Pulse,4,87,2020-04-28,0,Dewgong,ice,water,ice&water,electric&fighting&grass&rock,2,https://gamepress.gg/pokemongo/pokemon/87
,-1,502,2019-09-17,-1,Dewott,water,,fire&ice&steel&water,electric&grass,-1,https://gamepress.gg/pokemongo/pokemon/502
,-1,85,2020-04-28,-1,Dodrio,flying,normal,bug&ghost&grass&ground,electric&ice&rock,-1,https://gamepress.gg/pokemongo/pokemon/85
,0,386,2019-07-01,0,Deoxys (Normal Forme),psychic,,fighting&psychic,bug&dark&ghost,0,https://gamepress.gg/pokemongo/pokemon/386
Bite or Ice Fang + Aqua Tail and Fell Stinger or Crunch or Sludge Bomb&Infestation + Aqua Tail and Crunch or Sludge Bomb,3,452,2020-05-25,0,Drapion,dark,poison,dark&ghost&grass&poison&psychic,ground,3.5,https://gamepress.gg/pokemongo/pokemon/452
,-1,84,2020-04-28,-1,Doduo,flying,normal,bug&ghost&grass&ground,electric&ice&rock,-1,https://gamepress.gg/pokemongo/pokemon/84
,-1,633,2019-10-03,-1,Deino,dark,dragon,dark&electric&fire&ghost&grass&psychic&water,bug&dragon&fairy&fighting&ice,-1,https://gamepress.gg/pokemongo/pokemon/633
Snarl + Dark Pulse or Shadow Ball and Focus Blast,N,491,2020-05-20,3.5,Darkrai,dark,,dark&ghost&psychic,bug&fairy&fighting,1,https://gamepress.gg/pokemongo/pokemon/491
,-,132,2019-07-01,-,Ditto,normal,,ghost,fighting,-,https://gamepress.gg/pokemongo/pokemon/132
Fire Fang + Rock Slide and Overheat or Psychic,1.5,555,2020-03-04,0,Darmanitan,fire,,bug&fairy&fire&grass&ice&steel,ground&rock&water,1.5,https://gamepress.gg/pokemongo/pokemon/555
Ice Shard + Night Slash and Aurora Beam or Solar Beam or Water Pulse,1,615,2019-12-24,1,Cryogonal,ice,,ice,fighting&fire&rock&steel,2,https://gamepress.gg/pokemongo/pokemon/615
,-1,558,2019-09-14,-1,Crustle,bug,rock,normal&poison,rock&steel&water,-1,https://gamepress.gg/pokemongo/pokemon/558
,-1,585,2019-09-15,-1,Deerling,grass,normal,electric&ghost&grass&ground&water,bug&fighting&fire&flying&ice&poison,-1,https://gamepress.gg/pokemongo/pokemon/585
,-1,554,2019-09-14,-1,Darumaka,fire,,bug&fairy&fire&grass&ice&steel,ground&rock&water,-1,https://gamepress.gg/pokemongo/pokemon/554
,-1,225,2019-12-24,-1,Delibird,flying,ice,bug&grass&ground,electric&fire&rock&steel,-1,https://gamepress.gg/pokemongo/pokemon/225
,-1,613,2020-04-09,-1,Cubchoo,ice,,ice,fighting&fire&rock&steel,-1,https://gamepress.gg/pokemongo/pokemon/613
,-1,155,2020-05-08,-1,Cyndaquil,fire,,bug&fairy&fire&grass&ice&steel,ground&rock&water,-1,https://gamepress.gg/pokemongo/pokemon/155
Charm or Feint Attack + Disarming Voice and Wild Charge,1.5,301,2019-08-20,0,Delcatty,normal,,ghost,fighting,0,https://gamepress.gg/pokemongo/pokemon/301
Air Slash OR Bite+Sludge Bomb and Shadow Ball&Air Slash OR Bite+Return and Shadow Ball OR Sludge Bomb.,1.5,169,2020-05-01,1.5,Crobat,flying,poison,bug&fairy&fighting&grass&ground&poison,electric&ice&psychic&rock,2.5,https://gamepress.gg/pokemongo/pokemon/169
Snarl or Waterfall + Night Slash or Bubble Beam and Crabhammer,1.5,342,2020-04-09,1,Crawdaunt,dark,water,dark&fire&ghost&ice&psychic&steel&water,bug&electric&fairy&fighting&grass,1.5,https://gamepress.gg/pokemongo/pokemon/342
,-1,104,2020-05-01,-1,Cubone,ground,,electric&poison&rock,grass&ice&water,-1,https://gamepress.gg/pokemongo/pokemon/104
Psycho Cut or Confusion + Moonblast and Future Sight or Grass Knot*,4,488,2020-05-26,2,Cresselia,psychic,,fighting&psychic,bug&dark&ghost,4.5,https://gamepress.gg/pokemongo/pokemon/488
Counter + Dynamic Punch and Stone Edge,2,534,2020-01-12,4,Conkeldurr,fighting,,bug&dark&rock,fairy&flying&psychic,3.5,https://gamepress.gg/pokemongo/pokemon/534
,-1,159,2020-01-13,-1,Croconaw,water,,fire&ice&steel&water,electric&grass,-1,https://gamepress.gg/pokemongo/pokemon/159
,-1,453,2020-05-25,-1,Croagunk,fighting,poison,bug&dark&fighting&grass&poison&rock,flying&ground&psychic,-1,https://gamepress.gg/pokemongo/pokemon/453
Infestation + Stone Edge and Grass Knot,2,346,2020-04-02,0,Cradily,grass,rock,electric&normal,bug&fighting&ice&steel,1,https://gamepress.gg/pokemongo/pokemon/346
,-1,408,2020-05-25,-1,Cranidos,rock,,fire&flying&normal&poison,fighting&grass&ground&steel&water,-1,https://gamepress.gg/pokemongo/pokemon/408
,-1,341,2020-01-13,-1,Corphish,water,,fire&ice&steel&water,electric&grass,-1,https://gamepress.gg/pokemongo/pokemon/341
,-1,546,2019-09-16,-1,Cottonee,fairy,grass,dark&dragon&electric&fighting&grass&ground&water,fire&flying&ice&poison&steel,-1,https://gamepress.gg/pokemongo/pokemon/546
Bubble + Power Gem and Bubble Beam,2,222,2019-07-01,0,Corsola,rock,water,fire&flying&ice&normal&poison,electric&fighting&grass&ground,0,https://gamepress.gg/pokemongo/pokemon/222
,-1,415,2020-05-25,-1,Combee,bug,flying,bug&fighting&grass&ground,electric&fire&flying&ice&rock,-1,https://gamepress.gg/pokemongo/pokemon/415
,-1,256,2019-05-23,-1,Combusken,fighting,fire,bug&dark&fire&grass&ice&steel,flying&ground&psychic&water,-1,https://gamepress.gg/pokemongo/pokemon/256
Astonish + Shadow Ball and Psychic,1.5,563,2019-10-14,0,Cofagrigus,ghost,,bug&fighting&normal&poison,dark&ghost,0,https://gamepress.gg/pokemongo/pokemon/563
Metal Claw + Sacred Sword and Stone Edge or Iron Head,N,638,2020-04-29,2,Cobalion,fighting,steel,bug&dark&dragon&grass&ice&normal&poison&rock&steel,fighting&fire&ground,3,https://gamepress.gg/pokemongo/pokemon/638
Ice Shard + Icy Wind and Avalanche or Hydro Pump,2,91,2020-05-04,1,Cloyster,ice,water,ice&water,electric&fighting&grass&rock,3.5,https://gamepress.gg/pokemongo/pokemon/91
Charm+Aqua Tail and Thunderbolt,1,573,2020-02-02,0,Cinccino,normal,,ghost,fighting,0,https://gamepress.gg/pokemongo/pokemon/573
,-1,35,2020-01-13,-1,Clefairy,fairy,,bug&dark&dragon&fighting,poison&steel,-1,https://gamepress.gg/pokemongo/pokemon/35
Charm + Meteor Mash and Psychic,3.5,36,2020-03-11,1,Clefable,fairy,,bug&dark&dragon&fighting,poison&steel,4,https://gamepress.gg/pokemongo/pokemon/36
,-1,173,2020-04-29,-1,Cleffa,fairy,,bug&dark&dragon&fighting,poison&steel,-1,https://gamepress.gg/pokemongo/pokemon/173
,-1,390,2020-06-04,-1,Chimchar,fire,,bug&fairy&fire&grass&ice&steel,ground&rock&water,-1,https://gamepress.gg/pokemongo/pokemon/390
Confusion + Earth Power and Earthquake or Psychic,2,344,2020-03-27,0,Claydol,ground,psychic,electric&fighting&poison&psychic&rock,bug&dark&ghost&grass&ice&water,0,https://gamepress.gg/pokemongo/pokemon/344
,-1,366,2019-05-21,-1,Clamperl,water,,fire&ice&steel&water,electric&grass,-1,https://gamepress.gg/pokemongo/pokemon/366
,-1,433,2020-01-13,-1,Chingling,psychic,,fighting&psychic,bug&dark&ghost,-1,https://gamepress.gg/pokemongo/pokemon/433
,-1,170,2020-01-13,-1,Chinchou,electric,water,fire&flying&ice&steel&water,grass&ground,-1,https://gamepress.gg/pokemongo/pokemon/170
,-1,358,2019-04-17,-1,Chimecho,psychic,,fighting&psychic,bug&dark&ghost,-1,https://gamepress.gg/pokemongo/pokemon/358
,-1,420,2019-05-17,-1,Cherubi,grass,,electric&grass&ground&water,bug&fire&flying&ice&poison,-1,https://gamepress.gg/pokemongo/pokemon/420
,-1,609,2019-10-12,-1,Chandelure,fire,ghost,bug&fairy&fighting&fire&grass&ice&normal&poison&steel,dark&ghost&ground&rock&water,-1,https://gamepress.gg/pokemongo/pokemon/609
,-1,152,2020-05-08,-1,Chikorita,grass,,electric&grass&ground&water,bug&fire&flying&ice&poison,-1,https://gamepress.gg/pokemongo/pokemon/152
,-1,351,2019-06-26,-1,Castform,normal,,ghost,fighting,-1,https://gamepress.gg/pokemongo/pokemon/351
,-1,441,2020-01-13,-1,Chatot,flying,normal,bug&ghost&grass&ground,electric&ice&rock,-1,https://gamepress.gg/pokemongo/pokemon/441
,-1,421,2019-11-05,-1,Cherrim (Overcast Form),grass,,electric&grass&ground&water,bug&fire&flying&ice&poison,-1,https://gamepress.gg/pokemongo/pokemon/421
,-1,5,2019-08-23,-1,Charmeleon,fire,,bug&fairy&fire&grass&ice&steel,ground&rock&water,-1,https://gamepress.gg/pokemongo/pokemon/5
,-1,4,2020-05-04,-1,Charmander,fire,,bug&fairy&fire&grass&ice&steel,ground&rock&water,-1,https://gamepress.gg/pokemongo/pokemon/4
Pound + Dazzling Gleam and Hyper Beam,1,113,2019-09-28,0,Chansey,normal,,ghost,fighting,0,https://gamepress.gg/pokemongo/pokemon/113
Confusion + Psychic and Dazzling Gleam&Confusion + Psychic and Seed Bomb,2,251,2019-09-28,2,Celebi,grass,psychic,electric&fighting&grass&ground&psychic&water,bug&dark&fire&flying&ghost&ice&poison,1.5,https://gamepress.gg/pokemongo/pokemon/251
,-1,10,2020-03-19,-1,Caterpie,bug,,fighting&grass&ground,fire&flying&rock,-1,https://gamepress.gg/pokemongo/pokemon/10
,-1,268,2020-01-13,-1,Cascoon,bug,,fighting&grass&ground,fire&flying&rock,-1,https://gamepress.gg/pokemongo/pokemon/268
,-1,318,2020-03-07,-1,Carvanha,dark,water,fighting&grass&ground,fire&flying&rock,-1,https://gamepress.gg/pokemongo/pokemon/318
Vine Whip + Crunch and Power Whip,2,455,2020-02-29,0,Carnivine,grass,,electric&grass&ground&water,bug&fire&flying&ice&poison,1,https://gamepress.gg/pokemongo/pokemon/455
,-1,565,2019-09-15,-1,Carracosta,rock,water,fire&flying&ice&normal&poison,electric&fighting&grass&ground,-1,https://gamepress.gg/pokemongo/pokemon/565
,-1,1,2020-05-04,-1,Bulbasaur,grass,poison,electric&fairy&fighting&grass&water,fire&flying&ice&psychic,-1,https://gamepress.gg/pokemongo/pokemon/1
Ember + Earth Power + Overheat,1,323,2019-07-01,0,Camerupt,fire,ground,bug&electric&fairy&fire&poison&steel,ground&water,0,https://gamepress.gg/pokemongo/pokemon/323
Confusion + Psyshock and Flash Cannon or Bulldoze,3.5,437,2020-05-25,0,Bronzong,psychic,steel,dragon&fairy&flying&grass&ice&normal&poison&psychic&rock&steel,dark&fire&ghost&ground,1,https://gamepress.gg/pokemongo/pokemon/437
Bug Bite+Signal Beam and Psychic&Confusion+Signal Beam and Psychic,1,12,2020-04-28,0,Butterfree,bug,flying,bug&fighting&grass&ground,electric&fire&flying&ice&rock,0,https://gamepress.gg/pokemongo/pokemon/12
,-1,412,2019-05-17,-1,Burmy,bug,,fighting&grass&ground,fire&flying&rock,-1,https://gamepress.gg/pokemongo/pokemon/412
,-1,427,2019-04-16,-1,Buneary,normal,,ghost,fighting,-1,https://gamepress.gg/pokemongo/pokemon/427
,-1,331,2020-05-01,-1,Cacnea,grass,,electric&grass&ground&water,bug&fire&flying&ice&poison,-1,https://gamepress.gg/pokemongo/pokemon/331
,-1,418,2020-01-13,-1,Buizel,water,,fire&ice&steel&water,electric&grass,-1,https://gamepress.gg/pokemongo/pokemon/418
Air Slash + Rock Slide and Brave Bird,1,628,2020-03-19,0,Braviary,flying,normal,bug&ghost&grass&ground,electric&ice&rock,2,https://gamepress.gg/pokemongo/pokemon/628
,-1,436,2019-05-21,-1,Bronzor,psychic,steel,dragon&fairy&flying&grass&ice&normal&poison&psychic&rock&steel,dark&fire&ghost&ground,-1,https://gamepress.gg/pokemongo/pokemon/436
Pound + Dazzling Gleam AND/OR Hyper Beam AND/OR Psychic,0,242,2020-05-25,1,Blissey,normal,,ghost,fighting,1,https://gamepress.gg/pokemongo/pokemon/242
,-1,406,2020-01-13,-1,Budew,grass,poison,electric&fairy&fighting&grass&water,fire&flying&ice&psychic,-1,https://gamepress.gg/pokemongo/pokemon/406
Counter + Blast Burn* and Blaze Kick&Counter + Stone Edge* and Blaze Kick,3,257,2020-05-20,2.5,Blaziken,fighting,fire,bug&dark&fire&grass&ice&steel,flying&ground&psychic&water,3,https://gamepress.gg/pokemongo/pokemon/257
Counter + Seed Bomb and Sludge Bomb or Dynamic Punch,2,286,2020-04-29,1,Breloom,fighting,grass,dark&electric&grass&ground&rock&water,fairy&fire&flying&ice&poison&psychic,3,https://gamepress.gg/pokemongo/pokemon/286
Water Gun + Hydro Cannon and Ice Beam,3,9,2020-04-28,1.5,Blastoise,water,,fire&ice&steel&water,electric&grass,4,https://gamepress.gg/pokemongo/pokemon/9
,-1,525,2020-01-10,-1,Boldore,rock,,fire&flying&normal&poison,fighting&grass&ground&steel&water,-1,https://gamepress.gg/pokemongo/pokemon/525
,-1,522,2020-02-25,-1,Blitzle,electric,,electric&flying&steel,ground,-1,https://gamepress.gg/pokemongo/pokemon/522
,-1,626,2019-09-15,-1,Bouffalant,normal,,ghost,fighting,-1,https://gamepress.gg/pokemongo/pokemon/626
,-1,438,2019-08-05,-1,Bonsly,rock,,fire&flying&normal&poison,fighting&grass&ground&steel&water,-1,https://gamepress.gg/pokemongo/pokemon/438
,-1,646,2020-05-19,-1,Kyurem,dragon,ice,electric&grass&water,dragon&fairy&fighting&rock&steel,-1,https://gamepress.gg/pokemongo/pokemon/646
Razor Leaf or Bullet Seed + Leaf Blade and Dazzling Gleam or Return,2.5,182,2020-05-01,1,Bellossom,grass,,electric&grass&ground&water,bug&fire&flying&ice&poison,1,https://gamepress.gg/pokemongo/pokemon/182
,-1,374,2020-05-01,-1,Beldum,psychic,steel,dragon&fairy&flying&grass&ice&normal&poison&psychic&rock&steel,dark&fire&ghost&ground,-1,https://gamepress.gg/pokemongo/pokemon/374
,-1,625,2019-09-15,-1,Bisharp,dark,steel,dark&dragon&flying&ghost&grass&ice&normal&poison&psychic&rock&steel,fighting&fire&ground,-1,https://gamepress.gg/pokemongo/pokemon/625
,-1,399,2020-01-13,-1,Bidoof,normal,,ghost,fighting,-1,https://gamepress.gg/pokemongo/pokemon/399
Poison Jab or Bug Bite* + X-Scissor or Fell Stinger and Sludge Bomb,2.5,15,2020-05-01,0,Beedrill,bug,poison,bug&fairy&fighting&grass&poison,fire&flying&psychic&rock,0,https://gamepress.gg/pokemongo/pokemon/15
Water Gun + Surf and Hyper Fang,2,400,2019-07-02,0,Bibarel,normal,water,fire&ghost&ice&steel&water,electric&fighting&grass,0,https://gamepress.gg/pokemongo/pokemon/400
,-1,267,2020-01-13,-1,Beautifly,bug,flying,bug&fighting&grass&ground,electric&fire&flying&ice&rock,-1,https://gamepress.gg/pokemongo/pokemon/267
,-1,606,2019-09-15,-1,Beheeyem,psychic,,fighting&psychic,bug&dark&ghost,-1,https://gamepress.gg/pokemongo/pokemon/606
,-1,550,2019-09-17,-1,Basculin,water,,fire&ice&steel&water,electric&grass,-1,https://gamepress.gg/pokemongo/pokemon/550
Powder Snow or Charm + Ice Punch and Surf,1,614,2019-12-24,0,Beartic,ice,,ice,fighting&fire&rock&steel,1,https://gamepress.gg/pokemongo/pokemon/614
Smack Down + Stone Edge and Flamethrower,4.5,411,2020-05-25,0,Bastiodon,rock,steel,bug&dragon&fairy&flying&ice&normal&poison&psychic&rock,fighting&ground&water,0,https://gamepress.gg/pokemongo/pokemon/411
Razor Leaf + Ancient Power and Grass Knot,2.5,153,2019-07-01,0,Bayleef,grass,,electric&grass&ground&water,bug&fire&flying&ice&poison,0,https://gamepress.gg/pokemongo/pokemon/153
,-1,69,2020-05-01,-1,Bellsprout,grass,poison,electric&fairy&fighting&grass&water,fire&flying&ice&psychic,-1,https://gamepress.gg/pokemongo/pokemon/69
,-1,610,2019-09-15,-1,Axew,dragon,,electric&fire&grass&water,dragon&fairy&ice,-1,https://gamepress.gg/pokemongo/pokemon/610
,-1,339,2019-05-07,-1,Barboach,ground,water,electric&fire&poison&rock&steel,grass,-1,https://gamepress.gg/pokemongo/pokemon/339
Shadow Claw + Shadow Ball and Thunder,2,354,2020-05-01,0,Banette,ghost,,bug&fighting&normal&poison,dark&ghost,1.5,https://gamepress.gg/pokemongo/pokemon/354
Ice Shard + Icy Wind and Hurricane*,1.5,144,2020-04-29,3,Articuno,flying,ice,bug&grass&ground,electric&fire&rock&steel,4,https://gamepress.gg/pokemongo/pokemon/144
,-1,343,2020-03-27,-1,Baltoy,ground,psychic,fighting&grass&ground,fire&flying&rock,-1,https://gamepress.gg/pokemongo/pokemon/343
Bubble + Ice Beam and Hydro Pump&Bubble + Ice Beam and Play Rough&Bubble + Play Rough and Hydro Pump,5,184,2020-03-23,0,Azumarill,fairy,water,bug&dark&dragon&fighting&fire&ice&water,electric&grass&poison,0,https://gamepress.gg/pokemongo/pokemon/184
,-1,371,2020-05-30,-1,Bagon,dragon,,electric&fire&grass&water,dragon&fairy&ice,-1,https://gamepress.gg/pokemongo/pokemon/371
Pound + Disarming Voice and Hyper Beam,0,531,2020-02-13,0,Audino,normal,,ghost,fighting,0,https://gamepress.gg/pokemongo/pokemon/531
,-1,298,2020-01-13,-1,Azurill,fairy,normal,bug&dark&dragon&ghost,poison&steel,-1,https://gamepress.gg/pokemongo/pokemon/298
Confusion + Future Sight and Swift&Confusion + Fire Blast and Swift,1,482,2019-10-11,0,Azelf,psychic,,fighting&psychic,bug&dark&ghost,0,https://gamepress.gg/pokemongo/pokemon/482
Thunder Shock* or Spark + Wild Charge and Brick Break or Thunder Punch,2.5,26,2020-04-28,0,Raichu,electric,,electric&flying&steel,ground,1,https://gamepress.gg/pokemongo/pokemon/26
Fire Spin + Flamethrower* and Psyshock,2.5,38,2020-05-25,0,Ninetales,fire,,bug&fairy&fire&grass&ice&steel,ground&rock&water,1.5,https://gamepress.gg/pokemongo/pokemon/38
Poison Jab + Thunder Punch and Dark Pulse or Acid Spray,3,89,2020-05-04,0,Muk,poison,,bug&fairy&fighting&grass&poison,ground&psychic,1,https://gamepress.gg/pokemongo/pokemon/89
,-1,304,2019-05-07,-1,Aron,rock,steel,bug&dragon&fairy&flying&ice&normal&poison&psychic&rock,fighting&ground&water,-1,https://gamepress.gg/pokemongo/pokemon/304
,1,105,2020-05-01,0,Marowak,ground,,electric&poison&rock,grass&ice&water,0,https://gamepress.gg/pokemongo/pokemon/105
Mudshot+Earthquake and Rock Tomb,1,28,2020-05-01,1,Sandslash,ground,,electric&poison&rock,grass&ice&water,1,https://gamepress.gg/pokemongo/pokemon/28
,-1,88,2020-05-01,-1,Grimer,poison,,bug&fairy&fighting&grass&poison,ground&psychic,-1,https://gamepress.gg/pokemongo/pokemon/88
,-1,27,2020-05-01,-1,Sandshrew,ground,,electric&poison&rock,grass&ice&water,-1,https://gamepress.gg/pokemongo/pokemon/27
Confusion+Seed Bomb and Psychic,2,103,2020-05-13,0,Exeggutor,grass,psychic,electric&fighting&grass&ground&psychic&water,bug&dark&fire&flying&ghost&ice&poison,1,https://gamepress.gg/pokemongo/pokemon/103
,-1,19,2020-05-01,-1,Rattata,normal,,ghost,fighting,-1,https://gamepress.gg/pokemongo/pokemon/19
,-1,20,2020-05-01,-1,Raticate,normal,,ghost,fighting,-1,https://gamepress.gg/pokemongo/pokemon/20
,-1,53,2020-05-01,-1,Persian,normal,,ghost,fighting,-1,https://gamepress.gg/pokemongo/pokemon/53
,-1,52,2020-05-08,-1,Meowth,normal,,ghost,fighting,-1,https://gamepress.gg/pokemongo/pokemon/52
Smack Down or Dragon Tail + Stone Edge and Heavy Slam,2,306,2020-05-30,2.5,Aggron,rock,steel,bug&dragon&fairy&flying&ice&normal&poison&psychic&rock,fighting&ground&water,2.5,https://gamepress.gg/pokemongo/pokemon/306
,-1,74,2019-05-07,-1,Geodude,ground,rock,electric&fire&flying&normal&poison&rock,fighting&grass&ground&ice&steel&water,-1,https://gamepress.gg/pokemongo/pokemon/74
,-1,75,2020-04-28,-1,Graveler,ground,rock,electric&fire&flying&normal&poison&rock,fighting&grass&ground&ice&steel&water,-1,https://gamepress.gg/pokemongo/pokemon/75
Rock Throw + Rock Slide and Earth Power,0,142,2020-05-04,0,Aerodactyl,flying,rock,bug&fire&flying&ground&normal&poison,electric&ice&rock&steel&water,0,https://gamepress.gg/pokemongo/pokemon/142
Psycho Cut + Thunder and Dark Pulse&Psycho Cut + Megahorn and Dark Pulse,1,359,2020-05-25,2,Absol,dark,,dark&ghost&psychic,bug&fairy&fighting,2,https://gamepress.gg/pokemongo/pokemon/359
,-1,51,2019-04-29,-1,Dugtrio,ground,,electric&poison&rock,grass&ice&water,-1,https://gamepress.gg/pokemongo/pokemon/51
,-1,50,2019-05-07,-1,Diglett,ground,,electric&poison&rock,grass&ice&water,-1,https://gamepress.gg/pokemongo/pokemon/50
,2,65,2020-04-28,2,Alakazam,psychic,,fighting&psychic,bug&dark&ghost,2,https://gamepress.gg/pokemongo/pokemon/65
,-1,190,2019-05-07,-1,Aipom,normal,,ghost,fighting,-1,https://gamepress.gg/pokemongo/pokemon/190
,-1,617,2019-09-15,-1,Accelgor,bug,,fighting&grass&ground,fire&flying&rock,-1,https://gamepress.gg/pokemongo/pokemon/617
,-1,63,2020-05-01,-1,Abra,psychic,,fighting&psychic,bug&dark&ghost,-1,https://gamepress.gg/pokemongo/pokemon/63
